{
  "CapturedAt": "20-09-2020 19:33:44",
  "Symbol": "AAPL"
},
{
  "CapturedAt": "20-09-2020 19:33:50",
  "Symbol": "AAPL"
},
{
  "CapturedAt": "20-09-2020 19:33:56",
  "Symbol": "AAPL"
},
{
  "CapturedAt": "20-09-2020 19:34:03",
  "Symbol": "AAPL"
},
{
  "CapturedAt": "20-09-2020 19:34:09",
  "Symbol": "AAPL"
},
{
  "CapturedAt": "20-09-2020 19:34:15",
  "Symbol": "AAPL"
},
{
  "CapturedAt": "20-09-2020 19:34:21",
  "Symbol": "AAPL"
},
{
  "CapturedAt": "20-09-2020 19:34:28",
  "Symbol": "AAPL"
},
{
  "CapturedAt": "20-09-2020 19:34:35",
  "Symbol": "AAPL"
},
{
  "CapturedAt": "20-09-2020 19:34:41",
  "Symbol": "AAPL"
},
{
  "CapturedAt": "20-09-2020 19:34:47",
  "Symbol": "AAPL"
},
{
  "CapturedAt": "20-09-2020 19:34:54",
  "Symbol": "AAPL"
},
{
  "CapturedAt": "20-09-2020 19:35:00",
  "Symbol": "AAPL"
},
{
  "CapturedAt": "20-09-2020 19:35:06",
  "Symbol": "AAPL"
},
{
  "CapturedAt": "20-09-2020 19:35:12",
  "Symbol": "AAPL"
},
{
  "CapturedAt": "20-09-2020 19:35:19",
  "Symbol": "AAPL"
},
{
  "CapturedAt": "20-09-2020 19:35:27",
  "Symbol": "AAPL"
},
{
  "CapturedAt": "20-09-2020 19:35:34",
  "Symbol": "AAPL"
},
{
  "CapturedAt": "20-09-2020 19:35:40",
  "Symbol": "AAPL"
},
{
  "CapturedAt": "20-09-2020 19:35:45",
  "Symbol": "AAPL"
},
{
  "CapturedAt": "20-09-2020 19:35:51",
  "Symbol": "AAPL"
},
{
  "CapturedAt": "20-09-2020 19:35:57",
  "Symbol": "AAPL"
},
{
  "CapturedAt": "20-09-2020 19:36:05",
  "Symbol": "AAPL"
},
{
  "CapturedAt": "20-09-2020 19:36:11",
  "Symbol": "AAPL"
},
{
  "CapturedAt": "20-09-2020 19:36:18",
  "Symbol": "AAPL"
},
{
  "CapturedAt": "20-09-2020 19:36:24",
  "Symbol": "AAPL"
},
{
  "CapturedAt": "20-09-2020 19:36:29",
  "Symbol": "AAPL"
},
{
  "CapturedAt": "20-09-2020 19:36:33",
  "Symbol": "AAPL"
},
{
  "CapturedAt": "20-09-2020 19:36:38",
  "Symbol": "AAPL"
},
{
  "CapturedAt": "20-09-2020 19:36:42",
  "Symbol": "AAPL"
},
{
  "CapturedAt": "20-09-2020 19:36:47",
  "Symbol": "AAPL"
},
{
  "CapturedAt": "20-09-2020 19:36:51",
  "Symbol": "AAPL"
},
{
  "CapturedAt": "20-09-2020 19:36:55",
  "Symbol": "AAPL"
},
{
  "CapturedAt": "20-09-2020 19:37:00",
  "Symbol": "AAPL"
},
{
  "CapturedAt": "20-09-2020 19:37:04",
  "Symbol": "AAPL"
},
{
  "CapturedAt": "20-09-2020 19:37:08",
  "Symbol": "AAPL"
},
{
  "CapturedAt": "20-09-2020 19:37:13",
  "Symbol": "AAPL"
},
{
  "CapturedAt": "20-09-2020 19:37:17",
  "Symbol": "AAPL"
},
{
  "CapturedAt": "20-09-2020 19:37:22",
  "Symbol": "AAPL"
},
{
  "CapturedAt": "20-09-2020 19:37:26",
  "Symbol": "AAPL"
},
{
  "CapturedAt": "20-09-2020 19:37:30",
  "Symbol": "AAPL"
},
{
  "CapturedAt": "20-09-2020 19:37:35",
  "Symbol": "AAPL"
},
{
  "CapturedAt": "20-09-2020 19:37:41",
  "Symbol": "AAPL"
},
{
  "CapturedAt": "20-09-2020 19:37:47",
  "Symbol": "AAPL"
},
{
  "CapturedAt": "20-09-2020 19:37:51",
  "Symbol": "AAPL"
},
{
  "CapturedAt": "20-09-2020 19:37:56",
  "Symbol": "AAPL"
},
{
  "CapturedAt": "20-09-2020 19:38:01",
  "Symbol": "AAPL"
},
{
  "CapturedAt": "20-09-2020 19:38:08",
  "Symbol": "AAPL"
},
{
  "CapturedAt": "20-09-2020 19:38:12",
  "Symbol": "AAPL"
},
{
  "CapturedAt": "20-09-2020 19:38:17",
  "Symbol": "AAPL"
},
{
  "CapturedAt": "20-09-2020 19:38:21",
  "Symbol": "AAPL"
},
{
  "CapturedAt": "20-09-2020 19:38:26",
  "Symbol": "AAPL"
},
{
  "CapturedAt": "20-09-2020 19:38:33",
  "Symbol": "AAPL"
},
{
  "CapturedAt": "20-09-2020 19:38:38",
  "Symbol": "AAPL"
},
{
  "CapturedAt": "20-09-2020 19:38:43",
  "Symbol": "AAPL"
},
{
  "CapturedAt": "20-09-2020 19:38:47",
  "Symbol": "AAPL"
},
{
  "CapturedAt": "20-09-2020 19:38:51",
  "Symbol": "AAPL"
},
{
  "CapturedAt": "20-09-2020 19:38:57",
  "Symbol": "AAPL"
},
{
  "CapturedAt": "20-09-2020 19:39:02",
  "Symbol": "AAPL"
},
{
  "CapturedAt": "20-09-2020 19:39:07",
  "Symbol": "AAPL"
},
{
  "CapturedAt": "20-09-2020 19:39:12",
  "Symbol": "AAPL"
},
{
  "CapturedAt": "20-09-2020 19:39:17",
  "Symbol": "AAPL"
},
{
  "CapturedAt": "20-09-2020 19:39:22",
  "Symbol": "AAPL"
},
{
  "CapturedAt": "20-09-2020 19:39:26",
  "Symbol": "AAPL"
},
{
  "CapturedAt": "20-09-2020 19:39:31",
  "Symbol": "AAPL"
},
{
  "CapturedAt": "20-09-2020 19:39:35",
  "Symbol": "AAPL"
},
{
  "CapturedAt": "20-09-2020 19:39:39",
  "Symbol": "AAPL"
},
{
  "CapturedAt": "20-09-2020 19:39:44",
  "Symbol": "AAPL"
},
{
  "CapturedAt": "20-09-2020 19:39:48",
  "Symbol": "AAPL"
},
{
  "CapturedAt": "20-09-2020 19:39:52",
  "Symbol": "AAPL"
},
{
  "CapturedAt": "20-09-2020 19:39:57",
  "Symbol": "AAPL"
},
{
  "CapturedAt": "20-09-2020 19:40:01",
  "Symbol": "AAPL"
},
{
  "CapturedAt": "20-09-2020 19:40:05",
  "Symbol": "AAPL"
},
{
  "CapturedAt": "20-09-2020 19:40:10",
  "Symbol": "AAPL"
},
{
  "CapturedAt": "20-09-2020 19:40:15",
  "Symbol": "AAPL"
},
{
  "CapturedAt": "20-09-2020 19:40:19",
  "Symbol": "AAPL"
},
{
  "CapturedAt": "20-09-2020 19:40:24",
  "Symbol": "AAPL"
},
{
  "CapturedAt": "20-09-2020 19:40:28",
  "Symbol": "AAPL"
},
{
  "CapturedAt": "20-09-2020 19:40:32",
  "Symbol": "AAPL"
},
{
  "CapturedAt": "20-09-2020 19:40:40",
  "Symbol": "AAPL"
},
{
  "CapturedAt": "20-09-2020 19:40:48",
  "Symbol": "AAPL"
},
{
  "CapturedAt": "20-09-2020 19:41:03",
  "Symbol": "AAPL"
},
{
  "CapturedAt": "20-09-2020 19:41:08",
  "Symbol": "AAPL"
},
{
  "CapturedAt": "20-09-2020 19:41:12",
  "Symbol": "AAPL"
},
{
  "CapturedAt": "20-09-2020 19:41:17",
  "Symbol": "AAPL"
},
{
  "CapturedAt": "20-09-2020 19:41:22",
  "Symbol": "AAPL"
},
{
  "CapturedAt": "20-09-2020 19:41:26",
  "Symbol": "AAPL"
},
{
  "CapturedAt": "20-09-2020 19:41:30",
  "Symbol": "AAPL"
},
{
  "CapturedAt": "20-09-2020 19:41:35",
  "Symbol": "AAPL"
},
{
  "CapturedAt": "20-09-2020 19:41:39",
  "Symbol": "AAPL"
},
{
  "CapturedAt": "20-09-2020 19:41:43",
  "Symbol": "AAPL"
},
{
  "CapturedAt": "20-09-2020 19:41:48",
  "Symbol": "AAPL"
},
{
  "CapturedAt": "20-09-2020 19:41:52",
  "Symbol": "AAPL"
},
{
  "CapturedAt": "20-09-2020 19:41:57",
  "Symbol": "AAPL"
},
{
  "CapturedAt": "20-09-2020 19:42:01",
  "Symbol": "AAPL"
},
{
  "CapturedAt": "20-09-2020 19:42:05",
  "Symbol": "AAPL"
},
{
  "CapturedAt": "20-09-2020 19:42:09",
  "Symbol": "AAPL"
},
{
  "CapturedAt": "20-09-2020 19:42:14",
  "Symbol": "AAPL"
},
{
  "CapturedAt": "20-09-2020 19:42:18",
  "Symbol": "AAPL"
},
{
  "CapturedAt": "20-09-2020 19:42:22",
  "Symbol": "AAPL"
},
{
  "CapturedAt": "20-09-2020 19:42:26",
  "Symbol": "AAPL"
},
{
  "CapturedAt": "20-09-2020 19:42:31",
  "Symbol": "AAPL"
},
{
  "CapturedAt": "20-09-2020 19:42:35",
  "Symbol": "AAPL"
},
{
  "CapturedAt": "20-09-2020 19:42:40",
  "Symbol": "AAPL"
},
{
  "CapturedAt": "20-09-2020 19:42:44",
  "Symbol": "AAPL"
},
{
  "CapturedAt": "20-09-2020 19:42:49",
  "Symbol": "AAPL"
},
{
  "CapturedAt": "20-09-2020 19:42:53",
  "Symbol": "AAPL"
},
{
  "CapturedAt": "20-09-2020 19:42:57",
  "Symbol": "AAPL"
},
{
  "CapturedAt": "20-09-2020 19:43:01",
  "Symbol": "AAPL"
},
{
  "CapturedAt": "20-09-2020 19:43:06",
  "Symbol": "AAPL"
},
{
  "CapturedAt": "20-09-2020 19:43:10",
  "Symbol": "AAPL"
},
{
  "CapturedAt": "20-09-2020 19:43:14",
  "Symbol": "AAPL"
},
{
  "CapturedAt": "20-09-2020 19:43:18",
  "Symbol": "AAPL"
},
{
  "CapturedAt": "20-09-2020 19:43:22",
  "Symbol": "AAPL"
},
{
  "CapturedAt": "20-09-2020 19:43:27",
  "Symbol": "AAPL"
},
{
  "CapturedAt": "20-09-2020 19:43:31",
  "Symbol": "AAPL"
},
{
  "CapturedAt": "20-09-2020 19:43:35",
  "Symbol": "AAPL"
},
{
  "CapturedAt": "20-09-2020 19:43:39",
  "Symbol": "AAPL"
},
{
  "CapturedAt": "20-09-2020 19:43:43",
  "Symbol": "AAPL"
},
{
  "CapturedAt": "20-09-2020 19:43:48",
  "Symbol": "AAPL"
},
{
  "CapturedAt": "20-09-2020 19:43:52",
  "Symbol": "AAPL"
},
{
  "CapturedAt": "20-09-2020 19:43:56",
  "Symbol": "AAPL"
},
{
  "CapturedAt": "20-09-2020 19:44:00",
  "Symbol": "AAPL"
},
{
  "CapturedAt": "20-09-2020 19:44:05",
  "Symbol": "AAPL"
},
{
  "CapturedAt": "20-09-2020 19:44:09",
  "Symbol": "AAPL"
},
{
  "CapturedAt": "20-09-2020 19:44:13",
  "Symbol": "AAPL"
},
{
  "CapturedAt": "20-09-2020 19:44:17",
  "Symbol": "AAPL"
},
{
  "CapturedAt": "20-09-2020 19:44:21",
  "Symbol": "AAPL"
},
{
  "CapturedAt": "20-09-2020 19:44:25",
  "Symbol": "AAPL"
},
{
  "CapturedAt": "20-09-2020 19:44:30",
  "Symbol": "AAPL"
},
{
  "CapturedAt": "20-09-2020 19:44:34",
  "Symbol": "AAPL"
},
{
  "CapturedAt": "20-09-2020 19:44:38",
  "Symbol": "AAPL"
},
{
  "CapturedAt": "20-09-2020 19:44:42",
  "Symbol": "AAPL"
},
{
  "CapturedAt": "20-09-2020 19:44:46",
  "Symbol": "AAPL"
},
{
  "CapturedAt": "20-09-2020 19:44:51",
  "Symbol": "AAPL"
},
{
  "CapturedAt": "20-09-2020 19:44:55",
  "Symbol": "AAPL"
},
{
  "CapturedAt": "20-09-2020 19:45:01",
  "Symbol": "AAPL"
},
{
  "CapturedAt": "20-09-2020 19:45:15",
  "Symbol": "AAPL"
},
{
  "CapturedAt": "20-09-2020 19:45:20",
  "Symbol": "AAPL"
},
{
  "CapturedAt": "20-09-2020 19:45:25",
  "Symbol": "AAPL"
},
{
  "CapturedAt": "20-09-2020 19:45:29",
  "Symbol": "AAPL"
},
{
  "CapturedAt": "20-09-2020 19:45:33",
  "Symbol": "AAPL"
},
{
  "CapturedAt": "20-09-2020 19:45:38",
  "Symbol": "AAPL"
},
{
  "CapturedAt": "20-09-2020 19:45:42",
  "Symbol": "AAPL"
},
{
  "CapturedAt": "20-09-2020 19:45:46",
  "Symbol": "AAPL"
},
{
  "CapturedAt": "20-09-2020 19:45:51",
  "Symbol": "AAPL"
},
{
  "CapturedAt": "20-09-2020 19:45:55",
  "Symbol": "AAPL"
},
{
  "CapturedAt": "20-09-2020 19:45:59",
  "Symbol": "AAPL"
},
{
  "CapturedAt": "20-09-2020 19:46:04",
  "Symbol": "AAPL"
},
{
  "CapturedAt": "20-09-2020 19:46:08",
  "Symbol": "AAPL"
},
{
  "CapturedAt": "20-09-2020 19:46:12",
  "Symbol": "AAPL"
},
{
  "CapturedAt": "20-09-2020 19:46:16",
  "Symbol": "AAPL"
},
{
  "CapturedAt": "20-09-2020 19:46:21",
  "Symbol": "AAPL"
},
{
  "CapturedAt": "20-09-2020 19:46:25",
  "Symbol": "AAPL"
},
{
  "CapturedAt": "20-09-2020 19:46:29",
  "Symbol": "AAPL"
},
{
  "CapturedAt": "20-09-2020 19:46:34",
  "Symbol": "AAPL"
},
{
  "CapturedAt": "20-09-2020 19:46:38",
  "Symbol": "AAPL"
},
{
  "CapturedAt": "20-09-2020 19:46:42",
  "Symbol": "AAPL"
},
{
  "CapturedAt": "20-09-2020 19:46:47",
  "Symbol": "AAPL"
},
{
  "CapturedAt": "20-09-2020 19:46:51",
  "Symbol": "AAPL"
},
{
  "CapturedAt": "20-09-2020 19:46:55",
  "Symbol": "AAPL"
},
{
  "CapturedAt": "20-09-2020 19:47:00",
  "Symbol": "AAPL"
},
{
  "CapturedAt": "20-09-2020 19:47:04",
  "Symbol": "AAPL"
},
{
  "CapturedAt": "20-09-2020 19:47:08",
  "Symbol": "AAPL"
},
{
  "CapturedAt": "20-09-2020 19:47:13",
  "Symbol": "AAPL"
},
{
  "CapturedAt": "20-09-2020 19:47:17",
  "Symbol": "AAPL"
},
{
  "CapturedAt": "20-09-2020 19:47:21",
  "Symbol": "AAPL"
},
{
  "CapturedAt": "20-09-2020 19:47:26",
  "Symbol": "AAPL"
},
{
  "CapturedAt": "20-09-2020 19:47:30",
  "Symbol": "AAPL"
},
{
  "CapturedAt": "20-09-2020 19:47:34",
  "Symbol": "AAPL"
},
{
  "CapturedAt": "20-09-2020 19:47:39",
  "Symbol": "AAPL"
},
{
  "CapturedAt": "20-09-2020 19:47:43",
  "Symbol": "AAPL"
},
{
  "CapturedAt": "20-09-2020 19:47:47",
  "Symbol": "AAPL"
},
{
  "CapturedAt": "20-09-2020 19:47:51",
  "Symbol": "AAPL"
},
{
  "CapturedAt": "20-09-2020 19:47:56",
  "Symbol": "AAPL"
},
{
  "CapturedAt": "20-09-2020 19:48:00",
  "Symbol": "AAPL"
},
{
  "CapturedAt": "20-09-2020 19:48:04",
  "Symbol": "AAPL"
},
{
  "CapturedAt": "20-09-2020 19:48:09",
  "Symbol": "AAPL"
},
{
  "CapturedAt": "20-09-2020 19:48:13",
  "Symbol": "AAPL"
},
{
  "CapturedAt": "20-09-2020 19:48:17",
  "Symbol": "AAPL"
},
{
  "CapturedAt": "20-09-2020 19:48:22",
  "Symbol": "AAPL"
},
{
  "CapturedAt": "20-09-2020 19:48:26",
  "Symbol": "AAPL"
},
{
  "CapturedAt": "20-09-2020 19:48:31",
  "Symbol": "AAPL"
},
{
  "CapturedAt": "20-09-2020 19:48:36",
  "Symbol": "AAPL"
},
{
  "CapturedAt": "20-09-2020 19:48:40",
  "Symbol": "AAPL"
},
{
  "CapturedAt": "20-09-2020 19:48:44",
  "Symbol": "AAPL"
},
{
  "CapturedAt": "20-09-2020 19:48:48",
  "Symbol": "AAPL"
},
{
  "CapturedAt": "20-09-2020 19:48:53",
  "Symbol": "AAPL"
},
{
  "CapturedAt": "20-09-2020 19:48:57",
  "Symbol": "AAPL"
},
{
  "CapturedAt": "20-09-2020 19:49:01",
  "Symbol": "AAPL"
},
{
  "CapturedAt": "20-09-2020 19:49:06",
  "Symbol": "AAPL"
},
{
  "CapturedAt": "20-09-2020 19:49:10",
  "Symbol": "AAPL"
},
{
  "CapturedAt": "20-09-2020 19:49:14",
  "Symbol": "AAPL"
},
{
  "CapturedAt": "20-09-2020 19:49:19",
  "Symbol": "AAPL"
},
{
  "CapturedAt": "20-09-2020 19:49:23",
  "Symbol": "AAPL"
},
{
  "CapturedAt": "20-09-2020 19:49:27",
  "Symbol": "AAPL"
},
{
  "CapturedAt": "20-09-2020 19:49:32",
  "Symbol": "AAPL"
},
{
  "CapturedAt": "20-09-2020 19:49:36",
  "Symbol": "AAPL"
},
{
  "CapturedAt": "20-09-2020 19:49:41",
  "Symbol": "AAPL"
},
{
  "CapturedAt": "20-09-2020 19:49:45",
  "Symbol": "AAPL"
},
{
  "CapturedAt": "20-09-2020 19:49:49",
  "Symbol": "AAPL"
},
{
  "CapturedAt": "20-09-2020 19:49:54",
  "Symbol": "AAPL"
},
{
  "CapturedAt": "20-09-2020 19:49:58",
  "Symbol": "AAPL"
},
{
  "CapturedAt": "20-09-2020 19:50:02",
  "Symbol": "AAPL"
},
{
  "CapturedAt": "20-09-2020 19:50:07",
  "Symbol": "AAPL"
},
{
  "CapturedAt": "20-09-2020 19:50:11",
  "Symbol": "AAPL"
},
{
  "CapturedAt": "20-09-2020 19:50:15",
  "Symbol": "AAPL"
},
{
  "CapturedAt": "20-09-2020 19:50:20",
  "Symbol": "AAPL"
},
{
  "CapturedAt": "20-09-2020 19:50:24",
  "Symbol": "AAPL"
},
{
  "CapturedAt": "20-09-2020 19:50:28",
  "Symbol": "AAPL"
},
{
  "CapturedAt": "20-09-2020 19:50:33",
  "Symbol": "AAPL"
},
{
  "CapturedAt": "20-09-2020 19:50:37",
  "Symbol": "AAPL"
},
{
  "CapturedAt": "20-09-2020 19:50:41",
  "Symbol": "AAPL"
},
{
  "CapturedAt": "20-09-2020 19:50:46",
  "Symbol": "AAPL"
},
{
  "CapturedAt": "20-09-2020 19:50:50",
  "Symbol": "AAPL"
},
{
  "CapturedAt": "20-09-2020 19:50:54",
  "Symbol": "AAPL"
},
{
  "CapturedAt": "20-09-2020 19:50:59",
  "Symbol": "AAPL"
},
{
  "CapturedAt": "20-09-2020 19:51:03",
  "Symbol": "AAPL"
},
{
  "CapturedAt": "20-09-2020 19:51:08",
  "Symbol": "AAPL"
},
{
  "CapturedAt": "20-09-2020 19:51:12",
  "Symbol": "AAPL"
},
{
  "CapturedAt": "20-09-2020 19:51:17",
  "Symbol": "AAPL"
},
{
  "CapturedAt": "20-09-2020 19:51:21",
  "Symbol": "AAPL"
},
{
  "CapturedAt": "20-09-2020 19:51:25",
  "Symbol": "AAPL"
},
{
  "CapturedAt": "20-09-2020 19:51:30",
  "Symbol": "AAPL"
},
{
  "CapturedAt": "20-09-2020 19:51:34",
  "Symbol": "AAPL"
},
{
  "CapturedAt": "20-09-2020 19:51:38",
  "Symbol": "AAPL"
},
{
  "CapturedAt": "20-09-2020 19:51:43",
  "Symbol": "AAPL"
},
{
  "CapturedAt": "20-09-2020 19:51:47",
  "Symbol": "AAPL"
},
{
  "CapturedAt": "20-09-2020 19:51:51",
  "Symbol": "AAPL"
},
{
  "CapturedAt": "20-09-2020 19:51:55",
  "Symbol": "AAPL"
},
{
  "CapturedAt": "20-09-2020 19:52:00",
  "Symbol": "AAPL"
},
{
  "CapturedAt": "20-09-2020 19:52:04",
  "Symbol": "AAPL"
},
{
  "CapturedAt": "20-09-2020 19:52:08",
  "Symbol": "AAPL"
},
{
  "CapturedAt": "20-09-2020 19:52:13",
  "Symbol": "AAPL"
},
{
  "CapturedAt": "20-09-2020 19:52:17",
  "Symbol": "AAPL"
},
{
  "CapturedAt": "20-09-2020 19:52:21",
  "Symbol": "AAPL"
},
{
  "CapturedAt": "20-09-2020 19:52:26",
  "Symbol": "AAPL"
},
{
  "CapturedAt": "20-09-2020 19:52:30",
  "Symbol": "AAPL"
},
{
  "CapturedAt": "20-09-2020 19:52:34",
  "Symbol": "AAPL"
},
{
  "CapturedAt": "20-09-2020 19:52:39",
  "Symbol": "AAPL"
},
{
  "CapturedAt": "20-09-2020 19:52:43",
  "Symbol": "AAPL"
},
{
  "CapturedAt": "20-09-2020 19:52:47",
  "Symbol": "AAPL"
},
{
  "CapturedAt": "20-09-2020 19:52:52",
  "Symbol": "AAPL"
},
{
  "CapturedAt": "20-09-2020 19:52:56",
  "Symbol": "AAPL"
},
{
  "CapturedAt": "20-09-2020 19:53:00",
  "Symbol": "AAPL"
},
{
  "CapturedAt": "20-09-2020 19:53:05",
  "Symbol": "AAPL"
},
{
  "CapturedAt": "20-09-2020 19:53:09",
  "Symbol": "AAPL"
},
{
  "CapturedAt": "20-09-2020 19:53:14",
  "Symbol": "AAPL"
},
{
  "CapturedAt": "20-09-2020 19:53:18",
  "Symbol": "AAPL"
},
{
  "CapturedAt": "20-09-2020 19:53:22",
  "Symbol": "AAPL"
},
{
  "CapturedAt": "20-09-2020 19:53:27",
  "Symbol": "AAPL"
},
{
  "CapturedAt": "20-09-2020 19:53:31",
  "Symbol": "AAPL"
},
{
  "CapturedAt": "20-09-2020 19:53:36",
  "Symbol": "AAPL"
},
{
  "CapturedAt": "20-09-2020 19:53:40",
  "Symbol": "AAPL"
},
{
  "CapturedAt": "20-09-2020 19:53:44",
  "Symbol": "AAPL"
},
{
  "CapturedAt": "20-09-2020 19:53:48",
  "Symbol": "AAPL"
},
{
  "CapturedAt": "20-09-2020 19:53:53",
  "Symbol": "AAPL"
},
{
  "CapturedAt": "20-09-2020 19:53:57",
  "Symbol": "AAPL"
},
{
  "CapturedAt": "20-09-2020 19:54:01",
  "Symbol": "AAPL"
},
{
  "CapturedAt": "20-09-2020 19:54:06",
  "Symbol": "AAPL"
},
{
  "CapturedAt": "20-09-2020 19:54:10",
  "Symbol": "AAPL"
},
{
  "CapturedAt": "20-09-2020 19:54:14",
  "Symbol": "AAPL"
},
{
  "CapturedAt": "20-09-2020 19:54:19",
  "Symbol": "AAPL"
},
{
  "CapturedAt": "20-09-2020 19:54:23",
  "Symbol": "AAPL"
},
{
  "CapturedAt": "20-09-2020 19:54:28",
  "Symbol": "AAPL"
},
{
  "CapturedAt": "20-09-2020 19:54:32",
  "Symbol": "AAPL"
},
{
  "CapturedAt": "20-09-2020 19:54:36",
  "Symbol": "AAPL"
},
{
  "CapturedAt": "20-09-2020 19:54:40",
  "Symbol": "AAPL"
},
{
  "CapturedAt": "20-09-2020 19:54:45",
  "Symbol": "AAPL"
},
{
  "CapturedAt": "20-09-2020 19:54:49",
  "Symbol": "AAPL"
},
{
  "CapturedAt": "20-09-2020 19:54:53",
  "Symbol": "AAPL"
},
{
  "CapturedAt": "20-09-2020 19:54:58",
  "Symbol": "AAPL"
},
{
  "CapturedAt": "20-09-2020 19:55:02",
  "Symbol": "AAPL"
},
{
  "CapturedAt": "20-09-2020 19:55:06",
  "Symbol": "AAPL"
},
{
  "CapturedAt": "20-09-2020 19:55:11",
  "Symbol": "AAPL"
},
{
  "CapturedAt": "20-09-2020 19:55:15",
  "Symbol": "AAPL"
},
{
  "CapturedAt": "20-09-2020 19:55:19",
  "Symbol": "AAPL"
},
{
  "CapturedAt": "20-09-2020 19:55:24",
  "Symbol": "AAPL"
},
{
  "CapturedAt": "20-09-2020 19:55:28",
  "Symbol": "AAPL"
},
{
  "CapturedAt": "20-09-2020 19:55:32",
  "Symbol": "AAPL"
},
{
  "CapturedAt": "20-09-2020 19:55:37",
  "Symbol": "AAPL"
},
{
  "CapturedAt": "20-09-2020 19:55:41",
  "Symbol": "AAPL"
},
{
  "CapturedAt": "20-09-2020 19:55:46",
  "Symbol": "AAPL"
},
{
  "CapturedAt": "20-09-2020 19:55:50",
  "Symbol": "AAPL"
},
{
  "CapturedAt": "20-09-2020 19:55:54",
  "Symbol": "AAPL"
},
{
  "CapturedAt": "20-09-2020 19:55:59",
  "Symbol": "AAPL"
},
{
  "CapturedAt": "20-09-2020 19:56:03",
  "Symbol": "AAPL"
},
{
  "CapturedAt": "20-09-2020 19:56:07",
  "Symbol": "AAPL"
},
{
  "CapturedAt": "20-09-2020 19:56:11",
  "Symbol": "AAPL"
},
{
  "CapturedAt": "20-09-2020 19:56:16",
  "Symbol": "AAPL"
},
{
  "CapturedAt": "20-09-2020 19:56:20",
  "Symbol": "AAPL"
},
{
  "CapturedAt": "20-09-2020 19:56:24",
  "Symbol": "AAPL"
},
{
  "CapturedAt": "20-09-2020 19:56:29",
  "Symbol": "AAPL"
},
{
  "CapturedAt": "20-09-2020 19:56:33",
  "Symbol": "AAPL"
},
{
  "CapturedAt": "20-09-2020 19:56:37",
  "Symbol": "AAPL"
},
{
  "CapturedAt": "20-09-2020 19:56:42",
  "Symbol": "AAPL"
},
{
  "CapturedAt": "20-09-2020 19:56:46",
  "Symbol": "AAPL"
},
{
  "CapturedAt": "20-09-2020 19:56:50",
  "Symbol": "AAPL"
},
{
  "CapturedAt": "20-09-2020 19:56:55",
  "Symbol": "AAPL"
},
{
  "CapturedAt": "20-09-2020 19:56:59",
  "Symbol": "AAPL"
},
{
  "CapturedAt": "20-09-2020 19:57:03",
  "Symbol": "AAPL"
},
{
  "CapturedAt": "20-09-2020 19:57:07",
  "Symbol": "AAPL"
},
{
  "CapturedAt": "20-09-2020 19:57:12",
  "Symbol": "AAPL"
},
{
  "CapturedAt": "20-09-2020 19:57:16",
  "Symbol": "AAPL"
},
{
  "CapturedAt": "20-09-2020 19:57:20",
  "Symbol": "AAPL"
},
{
  "CapturedAt": "20-09-2020 19:57:25",
  "Symbol": "AAPL"
},
{
  "CapturedAt": "20-09-2020 19:57:29",
  "Symbol": "AAPL"
},
{
  "CapturedAt": "20-09-2020 19:57:33",
  "Symbol": "AAPL"
},
{
  "CapturedAt": "20-09-2020 19:57:39",
  "Symbol": "AAPL"
},
{
  "CapturedAt": "20-09-2020 19:57:45",
  "Symbol": "AAPL"
},
{
  "CapturedAt": "20-09-2020 19:57:50",
  "Symbol": "AAPL"
},
{
  "CapturedAt": "20-09-2020 19:57:54",
  "Symbol": "AAPL"
},
{
  "CapturedAt": "20-09-2020 19:57:58",
  "Symbol": "AAPL"
},
{
  "CapturedAt": "20-09-2020 19:58:03",
  "Symbol": "AAPL"
},
{
  "CapturedAt": "20-09-2020 19:58:07",
  "Symbol": "AAPL"
},
{
  "CapturedAt": "20-09-2020 19:58:11",
  "Symbol": "AAPL"
},
{
  "CapturedAt": "20-09-2020 19:58:15",
  "Symbol": "AAPL"
},
{
  "CapturedAt": "20-09-2020 19:58:20",
  "Symbol": "AAPL"
},
{
  "CapturedAt": "20-09-2020 19:58:24",
  "Symbol": "AAPL"
},
{
  "CapturedAt": "20-09-2020 19:58:28",
  "Symbol": "AAPL"
},
{
  "CapturedAt": "20-09-2020 19:58:33",
  "Symbol": "AAPL"
},
{
  "CapturedAt": "20-09-2020 19:58:37",
  "Symbol": "AAPL"
},
{
  "CapturedAt": "20-09-2020 19:58:41",
  "Symbol": "AAPL"
},
{
  "CapturedAt": "20-09-2020 19:58:46",
  "Symbol": "AAPL"
},
{
  "CapturedAt": "20-09-2020 19:58:50",
  "Symbol": "AAPL"
},
{
  "CapturedAt": "20-09-2020 19:58:54",
  "Symbol": "AAPL"
},
{
  "CapturedAt": "20-09-2020 19:58:58",
  "Symbol": "AAPL"
},
{
  "CapturedAt": "20-09-2020 19:59:03",
  "Symbol": "AAPL"
},
{
  "CapturedAt": "20-09-2020 19:59:07",
  "Symbol": "AAPL"
},
{
  "CapturedAt": "20-09-2020 19:59:11",
  "Symbol": "AAPL"
},
{
  "CapturedAt": "20-09-2020 19:59:16",
  "Symbol": "AAPL"
},
{
  "CapturedAt": "20-09-2020 19:59:20",
  "Symbol": "AAPL"
},
{
  "CapturedAt": "20-09-2020 19:59:24",
  "Symbol": "AAPL"
},
{
  "CapturedAt": "20-09-2020 19:59:29",
  "Symbol": "AAPL"
},
{
  "CapturedAt": "20-09-2020 19:59:33",
  "Symbol": "AAPL"
},
{
  "CapturedAt": "20-09-2020 19:59:37",
  "Symbol": "AAPL"
},
{
  "CapturedAt": "20-09-2020 19:59:41",
  "Symbol": "AAPL"
},
{
  "CapturedAt": "20-09-2020 19:59:46",
  "Symbol": "AAPL"
},
{
  "CapturedAt": "20-09-2020 19:59:50",
  "Symbol": "AAPL"
},
{
  "CapturedAt": "20-09-2020 19:59:54",
  "Symbol": "AAPL"
},
{
  "CapturedAt": "20-09-2020 19:59:59",
  "Symbol": "AAPL"
},
{
  "CapturedAt": "20-09-2020 20:00:03",
  "Symbol": "AAPL"
},
{
  "CapturedAt": "20-09-2020 20:00:07",
  "Symbol": "AAPL"
},
{
  "CapturedAt": "20-09-2020 20:00:12",
  "Symbol": "AAPL"
},
{
  "CapturedAt": "20-09-2020 20:00:16",
  "Symbol": "AAPL"
},
{
  "CapturedAt": "20-09-2020 20:00:20",
  "Symbol": "AAPL"
},
{
  "CapturedAt": "20-09-2020 20:00:25",
  "Symbol": "AAPL"
},
{
  "CapturedAt": "20-09-2020 20:00:29",
  "Symbol": "AAPL"
},
{
  "CapturedAt": "20-09-2020 20:00:33",
  "Symbol": "AAPL"
},
{
  "CapturedAt": "20-09-2020 20:00:38",
  "Symbol": "AAPL"
},
{
  "CapturedAt": "20-09-2020 20:00:43",
  "Symbol": "AAPL"
},
{
  "CapturedAt": "20-09-2020 20:00:47",
  "Symbol": "AAPL"
},
{
  "CapturedAt": "20-09-2020 20:00:51",
  "Symbol": "AAPL"
},
{
  "CapturedAt": "20-09-2020 20:00:56",
  "Symbol": "AAPL"
},
{
  "CapturedAt": "20-09-2020 20:01:00",
  "Symbol": "AAPL"
},
{
  "CapturedAt": "20-09-2020 20:01:05",
  "Symbol": "AAPL"
},
{
  "CapturedAt": "20-09-2020 20:01:11",
  "Symbol": "AAPL"
},
{
  "CapturedAt": "20-09-2020 20:01:16",
  "Symbol": "AAPL"
},
{
  "CapturedAt": "20-09-2020 20:01:20",
  "Symbol": "AAPL"
},
{
  "CapturedAt": "20-09-2020 20:01:25",
  "Symbol": "AAPL"
},
{
  "CapturedAt": "20-09-2020 20:01:29",
  "Symbol": "AAPL"
},
{
  "CapturedAt": "20-09-2020 20:01:33",
  "Symbol": "AAPL"
},
{
  "CapturedAt": "20-09-2020 20:01:38",
  "Symbol": "AAPL"
},
{
  "CapturedAt": "20-09-2020 20:01:42",
  "Symbol": "AAPL"
},
{
  "CapturedAt": "20-09-2020 20:01:46",
  "Symbol": "AAPL"
},
{
  "CapturedAt": "20-09-2020 20:01:51",
  "Symbol": "AAPL"
},
{
  "CapturedAt": "20-09-2020 20:01:55",
  "Symbol": "AAPL"
},
{
  "CapturedAt": "20-09-2020 20:01:59",
  "Symbol": "AAPL"
},
{
  "CapturedAt": "20-09-2020 20:02:04",
  "Symbol": "AAPL"
},
{
  "CapturedAt": "20-09-2020 20:02:08",
  "Symbol": "AAPL"
},
{
  "CapturedAt": "20-09-2020 20:02:12",
  "Symbol": "AAPL"
},
{
  "CapturedAt": "20-09-2020 20:02:17",
  "Symbol": "AAPL"
},
{
  "CapturedAt": "20-09-2020 20:02:22",
  "Symbol": "AAPL"
},
{
  "CapturedAt": "20-09-2020 20:02:26",
  "Symbol": "AAPL"
},
{
  "CapturedAt": "20-09-2020 20:02:31",
  "Symbol": "AAPL"
},
{
  "CapturedAt": "20-09-2020 20:02:35",
  "Symbol": "AAPL"
},
{
  "CapturedAt": "20-09-2020 20:02:40",
  "Symbol": "AAPL"
},
{
  "CapturedAt": "20-09-2020 20:02:44",
  "Symbol": "AAPL"
},
{
  "CapturedAt": "20-09-2020 20:02:48",
  "Symbol": "AAPL"
},
{
  "CapturedAt": "20-09-2020 20:02:53",
  "Symbol": "AAPL"
},
{
  "CapturedAt": "20-09-2020 20:02:57",
  "Symbol": "AAPL"
},
{
  "CapturedAt": "20-09-2020 20:03:02",
  "Symbol": "AAPL"
},
{
  "CapturedAt": "20-09-2020 20:03:06",
  "Symbol": "AAPL"
},
{
  "CapturedAt": "20-09-2020 20:03:11",
  "Symbol": "AAPL"
},
{
  "CapturedAt": "20-09-2020 20:03:15",
  "Symbol": "AAPL"
},
{
  "CapturedAt": "20-09-2020 20:03:20",
  "Symbol": "AAPL"
},
{
  "CapturedAt": "20-09-2020 20:03:24",
  "Symbol": "AAPL"
},
{
  "CapturedAt": "20-09-2020 20:03:28",
  "Symbol": "AAPL"
},
{
  "CapturedAt": "20-09-2020 20:03:33",
  "Symbol": "AAPL"
},
{
  "CapturedAt": "20-09-2020 20:03:37",
  "Symbol": "AAPL"
},
{
  "CapturedAt": "20-09-2020 20:03:41",
  "Symbol": "AAPL"
},
{
  "CapturedAt": "20-09-2020 20:03:45",
  "Symbol": "AAPL"
},
{
  "CapturedAt": "20-09-2020 20:03:50",
  "Symbol": "AAPL"
},
{
  "CapturedAt": "20-09-2020 20:03:54",
  "Symbol": "AAPL"
},
{
  "CapturedAt": "20-09-2020 20:03:58",
  "Symbol": "AAPL"
},
{
  "CapturedAt": "20-09-2020 20:04:03",
  "Symbol": "AAPL"
},
{
  "CapturedAt": "20-09-2020 20:04:07",
  "Symbol": "AAPL"
},
{
  "CapturedAt": "20-09-2020 20:04:11",
  "Symbol": "AAPL"
},
{
  "CapturedAt": "20-09-2020 20:04:15",
  "Symbol": "AAPL"
},
{
  "CapturedAt": "20-09-2020 20:04:20",
  "Symbol": "AAPL"
},
{
  "CapturedAt": "20-09-2020 20:04:24",
  "Symbol": "AAPL"
},
{
  "CapturedAt": "20-09-2020 20:04:28",
  "Symbol": "AAPL"
},
{
  "CapturedAt": "20-09-2020 20:04:33",
  "Symbol": "AAPL"
},
{
  "CapturedAt": "20-09-2020 20:04:37",
  "Symbol": "AAPL"
},
{
  "CapturedAt": "20-09-2020 20:04:41",
  "Symbol": "AAPL"
},
{
  "CapturedAt": "20-09-2020 20:04:46",
  "Symbol": "AAPL"
},
{
  "CapturedAt": "20-09-2020 20:04:50",
  "Symbol": "AAPL"
},
{
  "CapturedAt": "20-09-2020 20:04:54",
  "Symbol": "AAPL"
},
{
  "CapturedAt": "20-09-2020 20:04:58",
  "Symbol": "AAPL"
},
{
  "CapturedAt": "20-09-2020 20:05:03",
  "Symbol": "AAPL"
},
{
  "CapturedAt": "20-09-2020 20:05:07",
  "Symbol": "AAPL"
},
{
  "CapturedAt": "20-09-2020 20:05:11",
  "Symbol": "AAPL"
},
{
  "CapturedAt": "20-09-2020 20:05:15",
  "Symbol": "AAPL"
},
{
  "CapturedAt": "20-09-2020 20:05:20",
  "Symbol": "AAPL"
},
{
  "CapturedAt": "20-09-2020 20:05:24",
  "Symbol": "AAPL"
},
{
  "CapturedAt": "20-09-2020 20:05:28",
  "Symbol": "AAPL"
},
{
  "CapturedAt": "20-09-2020 20:05:33",
  "Symbol": "AAPL"
},
{
  "CapturedAt": "20-09-2020 20:05:37",
  "Symbol": "AAPL"
},
{
  "CapturedAt": "20-09-2020 20:05:41",
  "Symbol": "AAPL"
},
{
  "CapturedAt": "20-09-2020 20:05:45",
  "Symbol": "AAPL"
},
{
  "CapturedAt": "20-09-2020 20:05:50",
  "Symbol": "AAPL"
},
{
  "CapturedAt": "20-09-2020 20:05:54",
  "Symbol": "AAPL"
},
{
  "CapturedAt": "20-09-2020 20:05:58",
  "Symbol": "AAPL"
},
{
  "CapturedAt": "20-09-2020 20:06:02",
  "Symbol": "AAPL"
},
{
  "CapturedAt": "20-09-2020 20:06:07",
  "Symbol": "AAPL"
},
{
  "CapturedAt": "20-09-2020 20:06:11",
  "Symbol": "AAPL"
},
{
  "CapturedAt": "20-09-2020 20:06:15",
  "Symbol": "AAPL"
},
{
  "CapturedAt": "20-09-2020 20:06:20",
  "Symbol": "AAPL"
},
{
  "CapturedAt": "20-09-2020 20:06:24",
  "Symbol": "AAPL"
},
{
  "CapturedAt": "20-09-2020 20:06:28",
  "Symbol": "AAPL"
},
{
  "CapturedAt": "20-09-2020 20:06:33",
  "Symbol": "AAPL"
},
{
  "CapturedAt": "20-09-2020 20:06:37",
  "Symbol": "AAPL"
},
{
  "CapturedAt": "20-09-2020 20:06:41",
  "Symbol": "AAPL"
},
{
  "CapturedAt": "20-09-2020 20:06:45",
  "Symbol": "AAPL"
},
{
  "CapturedAt": "20-09-2020 20:06:50",
  "Symbol": "AAPL"
},
{
  "CapturedAt": "20-09-2020 20:06:54",
  "Symbol": "AAPL"
},
{
  "CapturedAt": "20-09-2020 20:06:58",
  "Symbol": "AAPL"
},
{
  "CapturedAt": "20-09-2020 20:07:03",
  "Symbol": "AAPL"
},
{
  "CapturedAt": "20-09-2020 20:07:07",
  "Symbol": "AAPL"
},
{
  "CapturedAt": "20-09-2020 20:07:11",
  "Symbol": "AAPL"
},
{
  "CapturedAt": "20-09-2020 20:07:15",
  "Symbol": "AAPL"
},
{
  "CapturedAt": "20-09-2020 20:07:20",
  "Symbol": "AAPL"
},
{
  "CapturedAt": "20-09-2020 20:07:24",
  "Symbol": "AAPL"
},
{
  "CapturedAt": "20-09-2020 20:07:28",
  "Symbol": "AAPL"
},
{
  "CapturedAt": "20-09-2020 20:07:33",
  "Symbol": "AAPL"
},
{
  "CapturedAt": "20-09-2020 20:07:37",
  "Symbol": "AAPL"
},
{
  "CapturedAt": "20-09-2020 20:07:41",
  "Symbol": "AAPL"
},
{
  "CapturedAt": "20-09-2020 20:07:45",
  "Symbol": "AAPL"
},
{
  "CapturedAt": "20-09-2020 20:07:50",
  "Symbol": "AAPL"
},
{
  "CapturedAt": "20-09-2020 20:07:54",
  "Symbol": "AAPL"
},
{
  "CapturedAt": "20-09-2020 20:07:58",
  "Symbol": "AAPL"
},
{
  "CapturedAt": "20-09-2020 20:08:03",
  "Symbol": "AAPL"
},
{
  "CapturedAt": "20-09-2020 20:08:07",
  "Symbol": "AAPL"
},
{
  "CapturedAt": "20-09-2020 20:08:11",
  "Symbol": "AAPL"
},
{
  "CapturedAt": "20-09-2020 20:08:15",
  "Symbol": "AAPL"
},
{
  "CapturedAt": "20-09-2020 20:08:20",
  "Symbol": "AAPL"
},
{
  "CapturedAt": "20-09-2020 20:08:24",
  "Symbol": "AAPL"
},
{
  "CapturedAt": "20-09-2020 20:08:28",
  "Symbol": "AAPL"
},
{
  "CapturedAt": "20-09-2020 20:08:33",
  "Symbol": "AAPL"
},
{
  "CapturedAt": "20-09-2020 20:08:37",
  "Symbol": "AAPL"
},
{
  "CapturedAt": "20-09-2020 20:08:41",
  "Symbol": "AAPL"
},
{
  "CapturedAt": "20-09-2020 20:08:46",
  "Symbol": "AAPL"
},
{
  "CapturedAt": "20-09-2020 20:08:50",
  "Symbol": "AAPL"
},
{
  "CapturedAt": "20-09-2020 20:08:54",
  "Symbol": "AAPL"
},
{
  "CapturedAt": "20-09-2020 20:08:58",
  "Symbol": "AAPL"
},
{
  "CapturedAt": "20-09-2020 20:09:03",
  "Symbol": "AAPL"
},
{
  "CapturedAt": "20-09-2020 20:09:07",
  "Symbol": "AAPL"
},
{
  "CapturedAt": "20-09-2020 20:09:11",
  "Symbol": "AAPL"
},
{
  "CapturedAt": "20-09-2020 20:09:16",
  "Symbol": "AAPL"
},
{
  "CapturedAt": "20-09-2020 20:09:20",
  "Symbol": "AAPL"
},
{
  "CapturedAt": "20-09-2020 20:09:24",
  "Symbol": "AAPL"
},
{
  "CapturedAt": "20-09-2020 20:09:28",
  "Symbol": "AAPL"
},
{
  "CapturedAt": "20-09-2020 20:09:33",
  "Symbol": "AAPL"
},
{
  "CapturedAt": "20-09-2020 20:09:37",
  "Symbol": "AAPL"
},
{
  "CapturedAt": "20-09-2020 20:09:41",
  "Symbol": "AAPL"
},
{
  "CapturedAt": "20-09-2020 20:09:46",
  "Symbol": "AAPL"
},
{
  "CapturedAt": "20-09-2020 20:09:50",
  "Symbol": "AAPL"
},
{
  "CapturedAt": "20-09-2020 20:09:54",
  "Symbol": "AAPL"
},
{
  "CapturedAt": "20-09-2020 20:09:59",
  "Symbol": "AAPL"
},
{
  "CapturedAt": "20-09-2020 20:10:03",
  "Symbol": "AAPL"
},
{
  "CapturedAt": "20-09-2020 20:10:07",
  "Symbol": "AAPL"
},
{
  "CapturedAt": "20-09-2020 20:10:12",
  "Symbol": "AAPL"
},
{
  "CapturedAt": "20-09-2020 20:10:16",
  "Symbol": "AAPL"
},
{
  "CapturedAt": "20-09-2020 20:10:20",
  "Symbol": "AAPL"
},
{
  "CapturedAt": "20-09-2020 20:10:24",
  "Symbol": "AAPL"
},
{
  "CapturedAt": "20-09-2020 20:10:29",
  "Symbol": "AAPL"
},
{
  "CapturedAt": "20-09-2020 20:10:33",
  "Symbol": "AAPL"
},
{
  "CapturedAt": "20-09-2020 20:10:37",
  "Symbol": "AAPL"
},
{
  "CapturedAt": "20-09-2020 20:10:41",
  "Symbol": "AAPL"
},
{
  "CapturedAt": "20-09-2020 20:10:46",
  "Symbol": "AAPL"
},
{
  "CapturedAt": "20-09-2020 20:10:50",
  "Symbol": "AAPL"
},
{
  "CapturedAt": "20-09-2020 20:10:54",
  "Symbol": "AAPL"
},
{
  "CapturedAt": "20-09-2020 20:10:59",
  "Symbol": "AAPL"
},
{
  "CapturedAt": "20-09-2020 20:11:03",
  "Symbol": "AAPL"
},
{
  "CapturedAt": "20-09-2020 20:11:07",
  "Symbol": "AAPL"
},
{
  "CapturedAt": "20-09-2020 20:11:11",
  "Symbol": "AAPL"
},
{
  "CapturedAt": "20-09-2020 20:11:16",
  "Symbol": "AAPL"
},
{
  "CapturedAt": "20-09-2020 20:11:20",
  "Symbol": "AAPL"
},
{
  "CapturedAt": "20-09-2020 20:11:24",
  "Symbol": "AAPL"
},
{
  "CapturedAt": "20-09-2020 20:11:29",
  "Symbol": "AAPL"
},
{
  "CapturedAt": "20-09-2020 20:11:33",
  "Symbol": "AAPL"
},
{
  "CapturedAt": "20-09-2020 20:11:37",
  "Symbol": "AAPL"
},
{
  "CapturedAt": "20-09-2020 20:11:42",
  "Symbol": "AAPL"
},
{
  "CapturedAt": "20-09-2020 20:11:46",
  "Symbol": "AAPL"
},
{
  "CapturedAt": "20-09-2020 20:11:50",
  "Symbol": "AAPL"
},
{
  "CapturedAt": "20-09-2020 20:11:54",
  "Symbol": "AAPL"
},
{
  "CapturedAt": "20-09-2020 20:11:59",
  "Symbol": "AAPL"
},
{
  "CapturedAt": "20-09-2020 20:12:03",
  "Symbol": "AAPL"
},
{
  "CapturedAt": "20-09-2020 20:12:07",
  "Symbol": "AAPL"
},
{
  "CapturedAt": "20-09-2020 20:12:12",
  "Symbol": "AAPL"
},
{
  "CapturedAt": "20-09-2020 20:12:16",
  "Symbol": "AAPL"
},
{
  "CapturedAt": "20-09-2020 20:12:20",
  "Symbol": "AAPL"
},
{
  "CapturedAt": "20-09-2020 20:12:24",
  "Symbol": "AAPL"
},
{
  "CapturedAt": "20-09-2020 20:12:29",
  "Symbol": "AAPL"
},
{
  "CapturedAt": "20-09-2020 20:12:33",
  "Symbol": "AAPL"
},
{
  "CapturedAt": "20-09-2020 20:12:37",
  "Symbol": "AAPL"
},
{
  "CapturedAt": "20-09-2020 20:12:42",
  "Symbol": "AAPL"
},
{
  "CapturedAt": "20-09-2020 20:12:46",
  "Symbol": "AAPL"
},
{
  "CapturedAt": "20-09-2020 20:12:50",
  "Symbol": "AAPL"
},
{
  "CapturedAt": "20-09-2020 20:12:55",
  "Symbol": "AAPL"
},
{
  "CapturedAt": "20-09-2020 20:12:59",
  "Symbol": "AAPL"
},
{
  "CapturedAt": "20-09-2020 20:13:03",
  "Symbol": "AAPL"
},
{
  "CapturedAt": "20-09-2020 20:13:07",
  "Symbol": "AAPL"
},
{
  "CapturedAt": "20-09-2020 20:13:12",
  "Symbol": "AAPL"
},
{
  "CapturedAt": "20-09-2020 20:13:16",
  "Symbol": "AAPL"
},
{
  "CapturedAt": "20-09-2020 20:13:21",
  "Symbol": "AAPL"
},
{
  "CapturedAt": "20-09-2020 20:13:25",
  "Symbol": "AAPL"
},
{
  "CapturedAt": "20-09-2020 20:13:30",
  "Symbol": "AAPL"
},
{
  "CapturedAt": "20-09-2020 20:13:34",
  "Symbol": "AAPL"
},
{
  "CapturedAt": "20-09-2020 20:13:38",
  "Symbol": "AAPL"
},
{
  "CapturedAt": "20-09-2020 20:13:42",
  "Symbol": "AAPL"
},
{
  "CapturedAt": "20-09-2020 20:13:47",
  "Symbol": "AAPL"
},
{
  "CapturedAt": "20-09-2020 20:13:51",
  "Symbol": "AAPL"
},
{
  "CapturedAt": "20-09-2020 20:13:55",
  "Symbol": "AAPL"
},
{
  "CapturedAt": "20-09-2020 20:14:00",
  "Symbol": "AAPL"
},
{
  "CapturedAt": "20-09-2020 20:14:04",
  "Symbol": "AAPL"
},
{
  "CapturedAt": "20-09-2020 20:14:08",
  "Symbol": "AAPL"
},
{
  "CapturedAt": "20-09-2020 20:14:13",
  "Symbol": "AAPL"
},
{
  "CapturedAt": "20-09-2020 20:14:17",
  "Symbol": "AAPL"
},
{
  "CapturedAt": "20-09-2020 20:14:21",
  "Symbol": "AAPL"
},
{
  "CapturedAt": "20-09-2020 20:14:25",
  "Symbol": "AAPL"
},
{
  "CapturedAt": "20-09-2020 20:14:30",
  "Symbol": "AAPL"
},
{
  "CapturedAt": "20-09-2020 20:14:34",
  "Symbol": "AAPL"
},
{
  "CapturedAt": "20-09-2020 20:14:38",
  "Symbol": "AAPL"
},
{
  "CapturedAt": "20-09-2020 20:14:43",
  "Symbol": "AAPL"
},
{
  "CapturedAt": "20-09-2020 20:14:47",
  "Symbol": "AAPL"
},
{
  "CapturedAt": "20-09-2020 20:14:51",
  "Symbol": "AAPL"
},
{
  "CapturedAt": "20-09-2020 20:14:56",
  "Symbol": "AAPL"
},
{
  "CapturedAt": "20-09-2020 20:15:00",
  "Symbol": "AAPL"
},
{
  "CapturedAt": "20-09-2020 20:15:04",
  "Symbol": "AAPL"
},
{
  "CapturedAt": "20-09-2020 20:15:08",
  "Symbol": "AAPL"
},
{
  "CapturedAt": "20-09-2020 20:15:13",
  "Symbol": "AAPL"
},
{
  "CapturedAt": "20-09-2020 20:15:17",
  "Symbol": "AAPL"
},
{
  "CapturedAt": "20-09-2020 20:15:21",
  "Symbol": "AAPL"
},
{
  "CapturedAt": "20-09-2020 20:15:26",
  "Symbol": "AAPL"
},
{
  "CapturedAt": "20-09-2020 20:15:30",
  "Symbol": "AAPL"
},
{
  "CapturedAt": "20-09-2020 20:15:34",
  "Symbol": "AAPL"
},
{
  "CapturedAt": "20-09-2020 20:15:38",
  "Symbol": "AAPL"
},
{
  "CapturedAt": "20-09-2020 20:15:43",
  "Symbol": "AAPL"
},
{
  "CapturedAt": "20-09-2020 20:15:47",
  "Symbol": "AAPL"
},
{
  "CapturedAt": "20-09-2020 20:15:51",
  "Symbol": "AAPL"
},
{
  "CapturedAt": "20-09-2020 20:15:56",
  "Symbol": "AAPL"
},
{
  "CapturedAt": "20-09-2020 20:16:00",
  "Symbol": "AAPL"
},
{
  "CapturedAt": "20-09-2020 20:16:04",
  "Symbol": "AAPL"
},
{
  "CapturedAt": "20-09-2020 20:16:09",
  "Symbol": "AAPL"
},
{
  "CapturedAt": "20-09-2020 20:16:13",
  "Symbol": "AAPL"
},
{
  "CapturedAt": "20-09-2020 20:16:17",
  "Symbol": "AAPL"
},
{
  "CapturedAt": "20-09-2020 20:16:21",
  "Symbol": "AAPL"
},
{
  "CapturedAt": "20-09-2020 20:16:26",
  "Symbol": "AAPL"
},
{
  "CapturedAt": "20-09-2020 20:16:30",
  "Symbol": "AAPL"
},
{
  "CapturedAt": "20-09-2020 20:16:34",
  "Symbol": "AAPL"
},
{
  "CapturedAt": "20-09-2020 20:16:38",
  "Symbol": "AAPL"
},
{
  "CapturedAt": "20-09-2020 20:16:43",
  "Symbol": "AAPL"
},
{
  "CapturedAt": "20-09-2020 20:16:47",
  "Symbol": "AAPL"
},
{
  "CapturedAt": "20-09-2020 20:16:51",
  "Symbol": "AAPL"
},
{
  "CapturedAt": "20-09-2020 20:16:56",
  "Symbol": "AAPL"
},
{
  "CapturedAt": "20-09-2020 20:17:00",
  "Symbol": "AAPL"
},
{
  "CapturedAt": "20-09-2020 20:17:04",
  "Symbol": "AAPL"
},
{
  "CapturedAt": "20-09-2020 20:17:08",
  "Symbol": "AAPL"
},
{
  "CapturedAt": "20-09-2020 20:17:13",
  "Symbol": "AAPL"
},
{
  "CapturedAt": "20-09-2020 20:17:17",
  "Symbol": "AAPL"
},
{
  "CapturedAt": "20-09-2020 20:17:21",
  "Symbol": "AAPL"
},
{
  "CapturedAt": "20-09-2020 20:17:25",
  "Symbol": "AAPL"
},
{
  "CapturedAt": "20-09-2020 20:17:30",
  "Symbol": "AAPL"
},
{
  "CapturedAt": "20-09-2020 20:17:34",
  "Symbol": "AAPL"
},
{
  "CapturedAt": "20-09-2020 20:17:38",
  "Symbol": "AAPL"
},
{
  "CapturedAt": "20-09-2020 20:17:43",
  "Symbol": "AAPL"
},
{
  "CapturedAt": "20-09-2020 20:17:47",
  "Symbol": "AAPL"
},
{
  "CapturedAt": "20-09-2020 20:17:51",
  "Symbol": "AAPL"
},
{
  "CapturedAt": "20-09-2020 20:17:56",
  "Symbol": "AAPL"
},
{
  "CapturedAt": "20-09-2020 20:18:00",
  "Symbol": "AAPL"
},
{
  "CapturedAt": "20-09-2020 20:18:04",
  "Symbol": "AAPL"
},
{
  "CapturedAt": "20-09-2020 20:18:08",
  "Symbol": "AAPL"
},
{
  "CapturedAt": "20-09-2020 20:18:13",
  "Symbol": "AAPL"
},
{
  "CapturedAt": "20-09-2020 20:18:17",
  "Symbol": "AAPL"
},
{
  "CapturedAt": "20-09-2020 20:18:21",
  "Symbol": "AAPL"
},
{
  "CapturedAt": "20-09-2020 20:18:26",
  "Symbol": "AAPL"
},
{
  "CapturedAt": "20-09-2020 20:18:30",
  "Symbol": "AAPL"
},
{
  "CapturedAt": "20-09-2020 20:18:34",
  "Symbol": "AAPL"
},
{
  "CapturedAt": "20-09-2020 20:18:38",
  "Symbol": "AAPL"
},
{
  "CapturedAt": "20-09-2020 20:18:43",
  "Symbol": "AAPL"
},
{
  "CapturedAt": "20-09-2020 20:18:47",
  "Symbol": "AAPL"
},
{
  "CapturedAt": "20-09-2020 20:18:51",
  "Symbol": "AAPL"
},
{
  "CapturedAt": "20-09-2020 20:18:56",
  "Symbol": "AAPL"
},
{
  "CapturedAt": "20-09-2020 20:19:00",
  "Symbol": "AAPL"
},
{
  "CapturedAt": "20-09-2020 20:19:04",
  "Symbol": "AAPL"
},
{
  "CapturedAt": "20-09-2020 20:19:09",
  "Symbol": "AAPL"
},
{
  "CapturedAt": "20-09-2020 20:19:13",
  "Symbol": "AAPL"
},
{
  "CapturedAt": "20-09-2020 20:19:17",
  "Symbol": "AAPL"
},
{
  "CapturedAt": "20-09-2020 20:19:21",
  "Symbol": "AAPL"
},
{
  "CapturedAt": "20-09-2020 20:19:26",
  "Symbol": "AAPL"
},
{
  "CapturedAt": "20-09-2020 20:19:30",
  "Symbol": "AAPL"
},
{
  "CapturedAt": "20-09-2020 20:19:34",
  "Symbol": "AAPL"
},
{
  "CapturedAt": "20-09-2020 20:19:39",
  "Symbol": "AAPL"
},
{
  "CapturedAt": "20-09-2020 20:19:43",
  "Symbol": "AAPL"
},
{
  "CapturedAt": "20-09-2020 20:19:47",
  "Symbol": "AAPL"
},
{
  "CapturedAt": "20-09-2020 20:19:52",
  "Symbol": "AAPL"
},
{
  "CapturedAt": "20-09-2020 20:19:56",
  "Symbol": "AAPL"
},
{
  "CapturedAt": "20-09-2020 20:20:00",
  "Symbol": "AAPL"
},
{
  "CapturedAt": "20-09-2020 20:20:05",
  "Symbol": "AAPL"
},
{
  "CapturedAt": "20-09-2020 20:20:09",
  "Symbol": "AAPL"
},
{
  "CapturedAt": "20-09-2020 20:20:13",
  "Symbol": "AAPL"
},
{
  "CapturedAt": "20-09-2020 20:20:18",
  "Symbol": "AAPL"
},
{
  "CapturedAt": "20-09-2020 20:20:22",
  "Symbol": "AAPL"
},
{
  "CapturedAt": "20-09-2020 20:20:26",
  "Symbol": "AAPL"
},
{
  "CapturedAt": "20-09-2020 20:20:30",
  "Symbol": "AAPL"
},
{
  "CapturedAt": "20-09-2020 20:20:35",
  "Symbol": "AAPL"
},
{
  "CapturedAt": "20-09-2020 20:20:39",
  "Symbol": "AAPL"
},
{
  "CapturedAt": "20-09-2020 20:20:43",
  "Symbol": "AAPL"
},
{
  "CapturedAt": "20-09-2020 20:20:48",
  "Symbol": "AAPL"
},
{
  "CapturedAt": "20-09-2020 20:20:52",
  "Symbol": "AAPL"
},
{
  "CapturedAt": "20-09-2020 20:20:56",
  "Symbol": "AAPL"
},
{
  "CapturedAt": "20-09-2020 20:21:00",
  "Symbol": "AAPL"
},
{
  "CapturedAt": "20-09-2020 20:21:05",
  "Symbol": "AAPL"
},
{
  "CapturedAt": "20-09-2020 20:21:09",
  "Symbol": "AAPL"
},
{
  "CapturedAt": "20-09-2020 20:21:13",
  "Symbol": "AAPL"
},
{
  "CapturedAt": "20-09-2020 20:21:17",
  "Symbol": "AAPL"
},
{
  "CapturedAt": "20-09-2020 20:21:22",
  "Symbol": "AAPL"
},
{
  "CapturedAt": "20-09-2020 20:21:26",
  "Symbol": "AAPL"
},
{
  "CapturedAt": "20-09-2020 20:21:30",
  "Symbol": "AAPL"
},
{
  "CapturedAt": "20-09-2020 20:21:35",
  "Symbol": "AAPL"
},
{
  "CapturedAt": "20-09-2020 20:21:39",
  "Symbol": "AAPL"
},
{
  "CapturedAt": "20-09-2020 20:21:43",
  "Symbol": "AAPL"
},
{
  "CapturedAt": "20-09-2020 20:21:47",
  "Symbol": "AAPL"
},
{
  "CapturedAt": "20-09-2020 20:21:52",
  "Symbol": "AAPL"
},
{
  "CapturedAt": "20-09-2020 20:21:56",
  "Symbol": "AAPL"
},
{
  "CapturedAt": "20-09-2020 20:22:00",
  "Symbol": "AAPL"
},
{
  "CapturedAt": "20-09-2020 20:22:05",
  "Symbol": "AAPL"
},
{
  "CapturedAt": "20-09-2020 20:22:10",
  "Symbol": "AAPL"
},
{
  "CapturedAt": "20-09-2020 20:22:14",
  "Symbol": "AAPL"
},
{
  "CapturedAt": "20-09-2020 20:22:19",
  "Symbol": "AAPL"
},
{
  "CapturedAt": "20-09-2020 20:22:24",
  "Symbol": "AAPL"
},
{
  "CapturedAt": "20-09-2020 20:22:29",
  "Symbol": "AAPL"
},
{
  "CapturedAt": "20-09-2020 20:22:33",
  "Symbol": "AAPL"
},
{
  "CapturedAt": "20-09-2020 20:22:37",
  "Symbol": "AAPL"
},
{
  "CapturedAt": "20-09-2020 20:22:42",
  "Symbol": "AAPL"
},
{
  "CapturedAt": "20-09-2020 20:22:48",
  "Symbol": "AAPL"
},
{
  "CapturedAt": "20-09-2020 20:22:52",
  "Symbol": "AAPL"
},
{
  "CapturedAt": "20-09-2020 20:22:57",
  "Symbol": "AAPL"
},
{
  "CapturedAt": "20-09-2020 20:23:01",
  "Symbol": "AAPL"
},
{
  "CapturedAt": "20-09-2020 20:23:08",
  "Symbol": "AAPL"
},
{
  "CapturedAt": "20-09-2020 20:23:13",
  "Symbol": "AAPL"
},
{
  "CapturedAt": "20-09-2020 20:23:17",
  "Symbol": "AAPL"
},
{
  "CapturedAt": "20-09-2020 20:23:21",
  "Symbol": "AAPL"
},
{
  "CapturedAt": "20-09-2020 20:23:26",
  "Symbol": "AAPL"
},
{
  "CapturedAt": "20-09-2020 20:23:30",
  "Symbol": "AAPL"
},
{
  "CapturedAt": "20-09-2020 20:23:34",
  "Symbol": "AAPL"
},
{
  "CapturedAt": "20-09-2020 20:23:38",
  "Symbol": "AAPL"
},
{
  "CapturedAt": "20-09-2020 20:23:43",
  "Symbol": "AAPL"
},
{
  "CapturedAt": "20-09-2020 20:23:47",
  "Symbol": "AAPL"
},
{
  "CapturedAt": "20-09-2020 20:23:51",
  "Symbol": "AAPL"
},
{
  "CapturedAt": "20-09-2020 20:23:56",
  "Symbol": "AAPL"
},
{
  "CapturedAt": "20-09-2020 20:24:00",
  "Symbol": "AAPL"
},
{
  "CapturedAt": "20-09-2020 20:24:04",
  "Symbol": "AAPL"
},
{
  "CapturedAt": "20-09-2020 20:24:09",
  "Symbol": "AAPL"
},
{
  "CapturedAt": "20-09-2020 20:24:13",
  "Symbol": "AAPL"
},
{
  "CapturedAt": "20-09-2020 20:24:17",
  "Symbol": "AAPL"
},
{
  "CapturedAt": "20-09-2020 20:24:21",
  "Symbol": "AAPL"
},
{
  "CapturedAt": "20-09-2020 20:24:26",
  "Symbol": "AAPL"
},
{
  "CapturedAt": "20-09-2020 20:24:30",
  "Symbol": "AAPL"
},
{
  "CapturedAt": "20-09-2020 20:24:34",
  "Symbol": "AAPL"
},
{
  "CapturedAt": "20-09-2020 20:24:39",
  "Symbol": "AAPL"
},
{
  "CapturedAt": "20-09-2020 20:24:43",
  "Symbol": "AAPL"
},
{
  "CapturedAt": "20-09-2020 20:24:47",
  "Symbol": "AAPL"
},
{
  "CapturedAt": "20-09-2020 20:24:52",
  "Symbol": "AAPL"
},
{
  "CapturedAt": "20-09-2020 20:24:56",
  "Symbol": "AAPL"
},
{
  "CapturedAt": "20-09-2020 20:25:00",
  "Symbol": "AAPL"
},
{
  "CapturedAt": "20-09-2020 20:25:05",
  "Symbol": "AAPL"
},
{
  "CapturedAt": "20-09-2020 20:25:09",
  "Symbol": "AAPL"
},
{
  "CapturedAt": "20-09-2020 20:25:13",
  "Symbol": "AAPL"
},
{
  "CapturedAt": "20-09-2020 20:25:18",
  "Symbol": "AAPL"
},
{
  "CapturedAt": "20-09-2020 20:25:22",
  "Symbol": "AAPL"
},
{
  "CapturedAt": "20-09-2020 20:25:26",
  "Symbol": "AAPL"
},
{
  "CapturedAt": "20-09-2020 20:25:30",
  "Symbol": "AAPL"
},
{
  "CapturedAt": "20-09-2020 20:25:35",
  "Symbol": "AAPL"
},
{
  "CapturedAt": "20-09-2020 20:25:39",
  "Symbol": "AAPL"
},
{
  "CapturedAt": "20-09-2020 20:25:43",
  "Symbol": "AAPL"
},
{
  "CapturedAt": "20-09-2020 20:25:48",
  "Symbol": "AAPL"
},
{
  "CapturedAt": "20-09-2020 20:25:52",
  "Symbol": "AAPL"
},
{
  "CapturedAt": "20-09-2020 20:25:56",
  "Symbol": "AAPL"
},
{
  "CapturedAt": "20-09-2020 20:26:01",
  "Symbol": "AAPL"
},
{
  "CapturedAt": "20-09-2020 20:26:05",
  "Symbol": "AAPL"
},
{
  "CapturedAt": "20-09-2020 20:26:09",
  "Symbol": "AAPL"
},
{
  "CapturedAt": "20-09-2020 20:26:13",
  "Symbol": "AAPL"
},
{
  "CapturedAt": "20-09-2020 20:26:18",
  "Symbol": "AAPL"
},
{
  "CapturedAt": "20-09-2020 20:26:22",
  "Symbol": "AAPL"
},
{
  "CapturedAt": "20-09-2020 20:26:26",
  "Symbol": "AAPL"
},
{
  "CapturedAt": "20-09-2020 20:26:31",
  "Symbol": "AAPL"
},
{
  "CapturedAt": "20-09-2020 20:26:35",
  "Symbol": "AAPL"
},
{
  "CapturedAt": "20-09-2020 20:26:39",
  "Symbol": "AAPL"
},
{
  "CapturedAt": "20-09-2020 20:26:43",
  "Symbol": "AAPL"
},
{
  "CapturedAt": "20-09-2020 20:26:48",
  "Symbol": "AAPL"
},
{
  "CapturedAt": "20-09-2020 20:26:52",
  "Symbol": "AAPL"
},
{
  "CapturedAt": "20-09-2020 20:26:56",
  "Symbol": "AAPL"
},
{
  "CapturedAt": "20-09-2020 20:27:01",
  "Symbol": "AAPL"
},
{
  "CapturedAt": "20-09-2020 20:27:05",
  "Symbol": "AAPL"
},
{
  "CapturedAt": "20-09-2020 20:27:09",
  "Symbol": "AAPL"
},
{
  "CapturedAt": "20-09-2020 20:27:14",
  "Symbol": "AAPL"
},
{
  "CapturedAt": "20-09-2020 20:27:18",
  "Symbol": "AAPL"
},
{
  "CapturedAt": "20-09-2020 20:27:22",
  "Symbol": "AAPL"
},
{
  "CapturedAt": "20-09-2020 20:27:27",
  "Symbol": "AAPL"
},
{
  "CapturedAt": "20-09-2020 20:27:31",
  "Symbol": "AAPL"
},
{
  "CapturedAt": "20-09-2020 20:27:35",
  "Symbol": "AAPL"
},
{
  "CapturedAt": "20-09-2020 20:27:40",
  "Symbol": "AAPL"
},
{
  "CapturedAt": "20-09-2020 20:27:44",
  "Symbol": "AAPL"
},
{
  "CapturedAt": "20-09-2020 20:27:48",
  "Symbol": "AAPL"
},
{
  "CapturedAt": "20-09-2020 20:27:53",
  "Symbol": "AAPL"
},
{
  "CapturedAt": "20-09-2020 20:27:57",
  "Symbol": "AAPL"
},
{
  "CapturedAt": "20-09-2020 20:28:01",
  "Symbol": "AAPL"
},
{
  "CapturedAt": "20-09-2020 20:28:06",
  "Symbol": "AAPL"
},
{
  "CapturedAt": "20-09-2020 20:28:10",
  "Symbol": "AAPL"
},
{
  "CapturedAt": "20-09-2020 20:28:14",
  "Symbol": "AAPL"
},
{
  "CapturedAt": "20-09-2020 20:28:19",
  "Symbol": "AAPL"
},
{
  "CapturedAt": "20-09-2020 20:28:23",
  "Symbol": "AAPL"
},
{
  "CapturedAt": "20-09-2020 20:28:27",
  "Symbol": "AAPL"
},
{
  "CapturedAt": "20-09-2020 20:28:31",
  "Symbol": "AAPL"
},
{
  "CapturedAt": "20-09-2020 20:28:36",
  "Symbol": "AAPL"
},
{
  "CapturedAt": "20-09-2020 20:28:40",
  "Symbol": "AAPL"
},
{
  "CapturedAt": "20-09-2020 20:28:44",
  "Symbol": "AAPL"
},
{
  "CapturedAt": "20-09-2020 20:28:49",
  "Symbol": "AAPL"
},
{
  "CapturedAt": "20-09-2020 20:28:53",
  "Symbol": "AAPL"
},
{
  "CapturedAt": "20-09-2020 20:28:57",
  "Symbol": "AAPL"
},
{
  "CapturedAt": "20-09-2020 20:29:02",
  "Symbol": "AAPL"
},
{
  "CapturedAt": "20-09-2020 20:29:06",
  "Symbol": "AAPL"
},
{
  "CapturedAt": "20-09-2020 20:29:10",
  "Symbol": "AAPL"
},
{
  "CapturedAt": "20-09-2020 20:29:14",
  "Symbol": "AAPL"
},
{
  "CapturedAt": "20-09-2020 20:29:19",
  "Symbol": "AAPL"
},
{
  "CapturedAt": "20-09-2020 20:29:23",
  "Symbol": "AAPL"
},
{
  "CapturedAt": "20-09-2020 20:29:27",
  "Symbol": "AAPL"
},
{
  "CapturedAt": "20-09-2020 20:29:32",
  "Symbol": "AAPL"
},
{
  "CapturedAt": "20-09-2020 20:29:36",
  "Symbol": "AAPL"
},
{
  "CapturedAt": "20-09-2020 20:29:40",
  "Symbol": "AAPL"
},
{
  "CapturedAt": "20-09-2020 20:29:45",
  "Symbol": "AAPL"
},
{
  "CapturedAt": "20-09-2020 20:29:49",
  "Symbol": "AAPL"
},
{
  "CapturedAt": "20-09-2020 20:29:53",
  "Symbol": "AAPL"
},
{
  "CapturedAt": "20-09-2020 20:29:58",
  "Symbol": "AAPL"
},
{
  "CapturedAt": "20-09-2020 20:30:02",
  "Symbol": "AAPL"
},
{
  "CapturedAt": "20-09-2020 20:30:06",
  "Symbol": "AAPL"
},
{
  "CapturedAt": "20-09-2020 20:30:11",
  "Symbol": "AAPL"
},
{
  "CapturedAt": "20-09-2020 20:30:15",
  "Symbol": "AAPL"
},
{
  "CapturedAt": "20-09-2020 20:30:19",
  "Symbol": "AAPL"
},
{
  "CapturedAt": "20-09-2020 20:30:24",
  "Symbol": "AAPL"
},
{
  "CapturedAt": "20-09-2020 20:30:28",
  "Symbol": "AAPL"
},
{
  "CapturedAt": "20-09-2020 20:30:32",
  "Symbol": "AAPL"
},
{
  "CapturedAt": "20-09-2020 20:30:36",
  "Symbol": "AAPL"
},
{
  "CapturedAt": "20-09-2020 20:30:41",
  "Symbol": "AAPL"
},
{
  "CapturedAt": "20-09-2020 20:30:45",
  "Symbol": "AAPL"
},
{
  "CapturedAt": "20-09-2020 20:30:49",
  "Symbol": "AAPL"
},
{
  "CapturedAt": "20-09-2020 20:30:54",
  "Symbol": "AAPL"
},
{
  "CapturedAt": "20-09-2020 20:30:58",
  "Symbol": "AAPL"
},
{
  "CapturedAt": "20-09-2020 20:31:02",
  "Symbol": "AAPL"
},
{
  "CapturedAt": "20-09-2020 20:31:07",
  "Symbol": "AAPL"
},
{
  "CapturedAt": "20-09-2020 20:31:11",
  "Symbol": "AAPL"
},
{
  "CapturedAt": "20-09-2020 20:31:15",
  "Symbol": "AAPL"
},
{
  "CapturedAt": "20-09-2020 20:31:19",
  "Symbol": "AAPL"
},
{
  "CapturedAt": "20-09-2020 20:31:24",
  "Symbol": "AAPL"
},
{
  "CapturedAt": "20-09-2020 20:31:28",
  "Symbol": "AAPL"
},
{
  "CapturedAt": "20-09-2020 20:31:32",
  "Symbol": "AAPL"
},
{
  "CapturedAt": "20-09-2020 20:31:37",
  "Symbol": "AAPL"
},
{
  "CapturedAt": "20-09-2020 20:31:41",
  "Symbol": "AAPL"
},
{
  "CapturedAt": "20-09-2020 20:31:45",
  "Symbol": "AAPL"
},
{
  "CapturedAt": "20-09-2020 20:31:50",
  "Symbol": "AAPL"
},
{
  "CapturedAt": "20-09-2020 20:31:54",
  "Symbol": "AAPL"
},
{
  "CapturedAt": "20-09-2020 20:31:58",
  "Symbol": "AAPL"
},
{
  "CapturedAt": "20-09-2020 20:32:03",
  "Symbol": "AAPL"
},
{
  "CapturedAt": "20-09-2020 20:32:07",
  "Symbol": "AAPL"
},
{
  "CapturedAt": "20-09-2020 20:32:11",
  "Symbol": "AAPL"
},
{
  "CapturedAt": "20-09-2020 20:32:15",
  "Symbol": "AAPL"
},
{
  "CapturedAt": "20-09-2020 20:32:20",
  "Symbol": "AAPL"
},
{
  "CapturedAt": "20-09-2020 20:32:24",
  "Symbol": "AAPL"
},
{
  "CapturedAt": "20-09-2020 20:32:28",
  "Symbol": "AAPL"
},
{
  "CapturedAt": "20-09-2020 20:32:33",
  "Symbol": "AAPL"
},
{
  "CapturedAt": "20-09-2020 20:32:37",
  "Symbol": "AAPL"
},
{
  "CapturedAt": "20-09-2020 20:32:41",
  "Symbol": "AAPL"
},
{
  "CapturedAt": "20-09-2020 20:32:46",
  "Symbol": "AAPL"
},
{
  "CapturedAt": "20-09-2020 20:32:50",
  "Symbol": "AAPL"
},
{
  "CapturedAt": "20-09-2020 20:32:54",
  "Symbol": "AAPL"
},
{
  "CapturedAt": "20-09-2020 20:32:59",
  "Symbol": "AAPL"
},
{
  "CapturedAt": "20-09-2020 20:33:03",
  "Symbol": "AAPL"
},
{
  "CapturedAt": "20-09-2020 20:33:07",
  "Symbol": "AAPL"
},
{
  "CapturedAt": "20-09-2020 20:33:12",
  "Symbol": "AAPL"
},
{
  "CapturedAt": "20-09-2020 20:33:16",
  "Symbol": "AAPL"
},
{
  "CapturedAt": "20-09-2020 20:33:20",
  "Symbol": "AAPL"
},
{
  "CapturedAt": "20-09-2020 20:33:25",
  "Symbol": "AAPL"
},
{
  "CapturedAt": "20-09-2020 20:33:29",
  "Symbol": "AAPL"
},
{
  "CapturedAt": "20-09-2020 20:33:33",
  "Symbol": "AAPL"
},
{
  "CapturedAt": "20-09-2020 20:33:37",
  "Symbol": "AAPL"
},
{
  "CapturedAt": "20-09-2020 20:33:41",
  "Symbol": "AAPL"
},
{
  "CapturedAt": "20-09-2020 20:33:45",
  "Symbol": "AAPL"
},
{
  "CapturedAt": "20-09-2020 20:33:49",
  "Symbol": "AAPL"
},
{
  "CapturedAt": "20-09-2020 20:33:52",
  "Symbol": "AAPL"
},
{
  "CapturedAt": "20-09-2020 20:33:56",
  "Symbol": "AAPL"
},
{
  "CapturedAt": "20-09-2020 20:34:00",
  "Symbol": "AAPL"
},
{
  "CapturedAt": "20-09-2020 20:34:04",
  "Symbol": "AAPL"
},
{
  "CapturedAt": "20-09-2020 20:34:08",
  "Symbol": "AAPL"
},
{
  "CapturedAt": "20-09-2020 20:40:33",
  "Symbol": "AAPL"
},
{
  "CapturedAt": "20-09-2020 20:40:45",
  "Symbol": "AAPL"
},
{
  "CapturedAt": "20-09-2020 20:40:50",
  "Symbol": "AAPL"
},
{
  "CapturedAt": "20-09-2020 20:40:55",
  "Symbol": "AAPL"
},
{
  "CapturedAt": "20-09-2020 20:40:59",
  "Symbol": "AAPL"
},
{
  "CapturedAt": "20-09-2020 20:41:03",
  "Symbol": "AAPL"
},
{
  "CapturedAt": "20-09-2020 20:41:08",
  "Symbol": "AAPL"
},
{
  "CapturedAt": "20-09-2020 20:41:12",
  "Symbol": "AAPL"
},
{
  "CapturedAt": "20-09-2020 20:41:17",
  "Symbol": "AAPL"
},
{
  "CapturedAt": "20-09-2020 20:41:21",
  "Symbol": "AAPL"
},
{
  "CapturedAt": "20-09-2020 20:41:25",
  "Symbol": "AAPL"
},
{
  "CapturedAt": "20-09-2020 20:41:29",
  "Symbol": "AAPL"
},
{
  "CapturedAt": "20-09-2020 20:41:33",
  "Symbol": "AAPL"
},
{
  "CapturedAt": "20-09-2020 20:41:38",
  "Symbol": "AAPL"
},
{
  "CapturedAt": "20-09-2020 20:41:42",
  "Symbol": "AAPL"
},
{
  "CapturedAt": "20-09-2020 20:41:46",
  "Symbol": "AAPL"
},
{
  "CapturedAt": "20-09-2020 20:41:50",
  "Symbol": "AAPL"
},
{
  "CapturedAt": "20-09-2020 20:41:55",
  "Symbol": "AAPL"
},
{
  "CapturedAt": "20-09-2020 20:41:59",
  "Symbol": "AAPL"
},
{
  "CapturedAt": "20-09-2020 20:42:03",
  "Symbol": "AAPL"
},
{
  "CapturedAt": "20-09-2020 20:42:07",
  "Symbol": "AAPL"
},
{
  "CapturedAt": "20-09-2020 20:42:11",
  "Symbol": "AAPL"
},
{
  "CapturedAt": "20-09-2020 20:42:15",
  "Symbol": "AAPL"
},
{
  "CapturedAt": "20-09-2020 20:42:20",
  "Symbol": "AAPL"
},
{
  "CapturedAt": "20-09-2020 20:42:25",
  "Symbol": "AAPL"
},
{
  "CapturedAt": "20-09-2020 20:42:29",
  "Symbol": "AAPL"
},
{
  "CapturedAt": "20-09-2020 20:42:33",
  "Symbol": "AAPL"
},
{
  "CapturedAt": "20-09-2020 20:42:38",
  "Symbol": "AAPL"
},
{
  "CapturedAt": "20-09-2020 20:42:42",
  "Symbol": "AAPL"
},
{
  "CapturedAt": "20-09-2020 20:42:46",
  "Symbol": "AAPL"
},
{
  "CapturedAt": "20-09-2020 20:42:51",
  "Symbol": "AAPL"
},
{
  "CapturedAt": "20-09-2020 20:42:55",
  "Symbol": "AAPL"
},
{
  "CapturedAt": "20-09-2020 20:43:00",
  "Symbol": "AAPL"
},
{
  "CapturedAt": "20-09-2020 20:43:06",
  "Symbol": "AAPL"
},
{
  "CapturedAt": "20-09-2020 20:43:11",
  "Symbol": "AAPL"
},
{
  "CapturedAt": "20-09-2020 20:43:16",
  "Symbol": "AAPL"
},
{
  "CapturedAt": "20-09-2020 20:43:20",
  "Symbol": "AAPL"
},
{
  "CapturedAt": "20-09-2020 20:43:25",
  "Symbol": "AAPL"
},
{
  "CapturedAt": "20-09-2020 20:43:29",
  "Symbol": "AAPL"
},
{
  "CapturedAt": "20-09-2020 20:43:34",
  "Symbol": "AAPL"
},
{
  "CapturedAt": "20-09-2020 20:43:38",
  "Symbol": "AAPL"
},
{
  "CapturedAt": "20-09-2020 20:43:43",
  "Symbol": "AAPL"
},
{
  "CapturedAt": "20-09-2020 20:43:49",
  "Symbol": "AAPL"
},
{
  "CapturedAt": "20-09-2020 20:43:53",
  "Symbol": "AAPL"
},
{
  "CapturedAt": "20-09-2020 20:43:58",
  "Symbol": "AAPL"
},
{
  "CapturedAt": "20-09-2020 20:44:03",
  "Symbol": "AAPL"
},
{
  "CapturedAt": "20-09-2020 20:44:08",
  "Symbol": "AAPL"
},
{
  "CapturedAt": "20-09-2020 20:44:15",
  "Symbol": "AAPL"
},
{
  "CapturedAt": "20-09-2020 20:44:19",
  "Symbol": "AAPL"
},
{
  "CapturedAt": "20-09-2020 20:44:24",
  "Symbol": "AAPL"
},
{
  "CapturedAt": "20-09-2020 20:44:28",
  "Symbol": "AAPL"
},
{
  "CapturedAt": "20-09-2020 20:44:34",
  "Symbol": "AAPL"
},
{
  "CapturedAt": "20-09-2020 20:44:38",
  "Symbol": "AAPL"
},
{
  "CapturedAt": "20-09-2020 20:44:43",
  "Symbol": "AAPL"
},
{
  "CapturedAt": "20-09-2020 20:44:47",
  "Symbol": "AAPL"
},
{
  "CapturedAt": "20-09-2020 20:44:51",
  "Symbol": "AAPL"
},
{
  "CapturedAt": "20-09-2020 20:44:56",
  "Symbol": "AAPL"
},
{
  "CapturedAt": "20-09-2020 20:45:00",
  "Symbol": "AAPL"
},
{
  "CapturedAt": "20-09-2020 20:45:04",
  "Symbol": "AAPL"
},
{
  "CapturedAt": "20-09-2020 20:45:09",
  "Symbol": "AAPL"
},
{
  "CapturedAt": "20-09-2020 20:45:13",
  "Symbol": "AAPL"
},
{
  "CapturedAt": "20-09-2020 20:45:17",
  "Symbol": "AAPL"
},
{
  "CapturedAt": "20-09-2020 20:45:22",
  "Symbol": "AAPL"
},
{
  "CapturedAt": "20-09-2020 20:45:27",
  "Symbol": "AAPL"
},
{
  "CapturedAt": "20-09-2020 20:45:33",
  "Symbol": "AAPL"
},
{
  "CapturedAt": "20-09-2020 20:45:38",
  "Symbol": "AAPL"
},
{
  "CapturedAt": "20-09-2020 20:45:43",
  "Symbol": "AAPL"
},
{
  "CapturedAt": "20-09-2020 20:45:47",
  "Symbol": "AAPL"
},
{
  "CapturedAt": "20-09-2020 20:45:51",
  "Symbol": "AAPL"
},
{
  "CapturedAt": "20-09-2020 20:45:56",
  "Symbol": "AAPL"
},
{
  "CapturedAt": "20-09-2020 20:46:00",
  "Symbol": "AAPL"
},
{
  "CapturedAt": "20-09-2020 20:46:05",
  "Symbol": "AAPL"
},
{
  "CapturedAt": "20-09-2020 20:46:09",
  "Symbol": "AAPL"
},
{
  "CapturedAt": "20-09-2020 20:46:14",
  "Symbol": "AAPL"
},
{
  "CapturedAt": "20-09-2020 20:46:19",
  "Symbol": "AAPL"
},
{
  "CapturedAt": "20-09-2020 20:46:23",
  "Symbol": "AAPL"
},
{
  "CapturedAt": "20-09-2020 20:46:27",
  "Symbol": "AAPL"
},
{
  "CapturedAt": "20-09-2020 20:46:32",
  "Symbol": "AAPL"
},
{
  "CapturedAt": "20-09-2020 20:46:36",
  "Symbol": "AAPL"
},
{
  "CapturedAt": "20-09-2020 20:46:40",
  "Symbol": "AAPL"
},
{
  "CapturedAt": "20-09-2020 20:46:45",
  "Symbol": "AAPL"
},
{
  "CapturedAt": "20-09-2020 20:46:50",
  "Symbol": "AAPL"
},
{
  "CapturedAt": "20-09-2020 20:46:54",
  "Symbol": "AAPL"
},
{
  "CapturedAt": "20-09-2020 20:46:59",
  "Symbol": "AAPL"
},
{
  "CapturedAt": "20-09-2020 20:47:03",
  "Symbol": "AAPL"
},
{
  "CapturedAt": "20-09-2020 20:47:09",
  "Symbol": "AAPL"
},
{
  "CapturedAt": "20-09-2020 20:47:13",
  "Symbol": "AAPL"
},
{
  "CapturedAt": "20-09-2020 20:47:17",
  "Symbol": "AAPL"
},
{
  "CapturedAt": "20-09-2020 20:47:21",
  "Symbol": "AAPL"
},
{
  "CapturedAt": "20-09-2020 20:47:26",
  "Symbol": "AAPL"
},
{
  "CapturedAt": "20-09-2020 20:47:30",
  "Symbol": "AAPL"
},
{
  "CapturedAt": "20-09-2020 20:47:35",
  "Symbol": "AAPL"
},
{
  "CapturedAt": "20-09-2020 20:47:39",
  "Symbol": "AAPL"
},
{
  "CapturedAt": "20-09-2020 20:47:43",
  "Symbol": "AAPL"
},
{
  "CapturedAt": "20-09-2020 20:47:48",
  "Symbol": "AAPL"
},
{
  "CapturedAt": "20-09-2020 20:47:52",
  "Symbol": "AAPL"
},
{
  "CapturedAt": "20-09-2020 20:47:56",
  "Symbol": "AAPL"
},
{
  "CapturedAt": "20-09-2020 20:48:00",
  "Symbol": "AAPL"
},
{
  "CapturedAt": "20-09-2020 20:48:05",
  "Symbol": "AAPL"
},
{
  "CapturedAt": "20-09-2020 20:48:09",
  "Symbol": "AAPL"
},
{
  "CapturedAt": "20-09-2020 20:48:14",
  "Symbol": "AAPL"
},
{
  "CapturedAt": "20-09-2020 20:48:18",
  "Symbol": "AAPL"
},
{
  "CapturedAt": "20-09-2020 20:48:22",
  "Symbol": "AAPL"
},
{
  "CapturedAt": "20-09-2020 20:48:28",
  "Symbol": "AAPL"
},
{
  "CapturedAt": "20-09-2020 20:48:34",
  "Symbol": "AAPL"
},
{
  "CapturedAt": "20-09-2020 20:48:39",
  "Symbol": "AAPL"
},
{
  "CapturedAt": "20-09-2020 20:48:44",
  "Symbol": "AAPL"
},
{
  "CapturedAt": "20-09-2020 20:48:49",
  "Symbol": "AAPL"
},
{
  "CapturedAt": "20-09-2020 20:48:54",
  "Symbol": "AAPL"
},
{
  "CapturedAt": "20-09-2020 20:49:00",
  "Symbol": "AAPL"
},
{
  "CapturedAt": "20-09-2020 20:49:04",
  "Symbol": "AAPL"
},
{
  "CapturedAt": "20-09-2020 20:49:10",
  "Symbol": "AAPL"
},
{
  "CapturedAt": "20-09-2020 20:49:16",
  "Symbol": "AAPL"
},
{
  "CapturedAt": "20-09-2020 20:49:21",
  "Symbol": "AAPL"
},
{
  "CapturedAt": "20-09-2020 20:49:25",
  "Symbol": "AAPL"
},
{
  "CapturedAt": "20-09-2020 20:49:31",
  "Symbol": "AAPL"
},
{
  "CapturedAt": "20-09-2020 20:49:35",
  "Symbol": "AAPL"
},
{
  "CapturedAt": "20-09-2020 20:49:40",
  "Symbol": "AAPL"
},
{
  "CapturedAt": "20-09-2020 20:49:44",
  "Symbol": "AAPL"
},
{
  "CapturedAt": "20-09-2020 20:49:48",
  "Symbol": "AAPL"
},
{
  "CapturedAt": "20-09-2020 20:49:53",
  "Symbol": "AAPL"
},
{
  "CapturedAt": "20-09-2020 20:49:57",
  "Symbol": "AAPL"
},
{
  "CapturedAt": "20-09-2020 20:50:01",
  "Symbol": "AAPL"
},
{
  "CapturedAt": "20-09-2020 20:50:06",
  "Symbol": "AAPL"
},
{
  "CapturedAt": "20-09-2020 20:50:10",
  "Symbol": "AAPL"
},
{
  "CapturedAt": "20-09-2020 20:50:14",
  "Symbol": "AAPL"
},
{
  "CapturedAt": "20-09-2020 20:50:19",
  "Symbol": "AAPL"
},
{
  "CapturedAt": "20-09-2020 20:50:23",
  "Symbol": "AAPL"
},
{
  "CapturedAt": "20-09-2020 20:50:27",
  "Symbol": "AAPL"
},
{
  "CapturedAt": "20-09-2020 20:50:32",
  "Symbol": "AAPL"
},
{
  "CapturedAt": "20-09-2020 20:50:36",
  "Symbol": "AAPL"
},
{
  "CapturedAt": "20-09-2020 20:50:40",
  "Symbol": "AAPL"
},
{
  "CapturedAt": "20-09-2020 20:50:44",
  "Symbol": "AAPL"
},
{
  "CapturedAt": "20-09-2020 20:50:51",
  "Symbol": "AAPL"
},
{
  "CapturedAt": "20-09-2020 20:50:57",
  "Symbol": "AAPL"
},
{
  "CapturedAt": "20-09-2020 20:51:02",
  "Symbol": "AAPL"
},
{
  "CapturedAt": "20-09-2020 20:51:08",
  "Symbol": "AAPL"
},
{
  "CapturedAt": "20-09-2020 20:51:12",
  "Symbol": "AAPL"
},
{
  "CapturedAt": "20-09-2020 20:51:16",
  "Symbol": "AAPL"
},
{
  "CapturedAt": "20-09-2020 20:51:22",
  "Symbol": "AAPL"
},
{
  "CapturedAt": "20-09-2020 20:51:26",
  "Symbol": "AAPL"
},
{
  "CapturedAt": "20-09-2020 20:51:31",
  "Symbol": "AAPL"
},
{
  "CapturedAt": "20-09-2020 20:51:35",
  "Symbol": "AAPL"
},
{
  "CapturedAt": "20-09-2020 20:51:40",
  "Symbol": "AAPL"
},
{
  "CapturedAt": "20-09-2020 20:51:46",
  "Symbol": "AAPL"
},
{
  "CapturedAt": "20-09-2020 20:51:50",
  "Symbol": "AAPL"
},
{
  "CapturedAt": "20-09-2020 20:51:55",
  "Symbol": "AAPL"
},
{
  "CapturedAt": "20-09-2020 20:52:00",
  "Symbol": "AAPL"
},
{
  "CapturedAt": "20-09-2020 20:52:05",
  "Symbol": "AAPL"
},
{
  "CapturedAt": "20-09-2020 20:52:10",
  "Symbol": "AAPL"
},
{
  "CapturedAt": "20-09-2020 20:52:15",
  "Symbol": "AAPL"
},
{
  "CapturedAt": "20-09-2020 20:52:20",
  "Symbol": "AAPL"
},
{
  "CapturedAt": "20-09-2020 20:52:25",
  "Symbol": "AAPL"
},
{
  "CapturedAt": "20-09-2020 20:52:30",
  "Symbol": "AAPL"
},
{
  "CapturedAt": "20-09-2020 20:52:34",
  "Symbol": "AAPL"
},
{
  "CapturedAt": "20-09-2020 20:52:41",
  "Symbol": "AAPL"
},
{
  "CapturedAt": "20-09-2020 20:52:45",
  "Symbol": "AAPL"
},
{
  "CapturedAt": "20-09-2020 20:52:49",
  "Symbol": "AAPL"
},
{
  "CapturedAt": "20-09-2020 20:52:54",
  "Symbol": "AAPL"
},
{
  "CapturedAt": "20-09-2020 20:52:58",
  "Symbol": "AAPL"
},
{
  "CapturedAt": "20-09-2020 20:53:03",
  "Symbol": "AAPL"
},
{
  "CapturedAt": "20-09-2020 20:53:07",
  "Symbol": "AAPL"
},
{
  "CapturedAt": "20-09-2020 20:53:11",
  "Symbol": "AAPL"
},
{
  "CapturedAt": "20-09-2020 20:53:15",
  "Symbol": "AAPL"
},
{
  "CapturedAt": "20-09-2020 20:53:20",
  "Symbol": "AAPL"
},
{
  "CapturedAt": "20-09-2020 20:53:24",
  "Symbol": "AAPL"
},
{
  "CapturedAt": "20-09-2020 20:53:28",
  "Symbol": "AAPL"
},
{
  "CapturedAt": "20-09-2020 20:53:33",
  "Symbol": "AAPL"
},
{
  "CapturedAt": "20-09-2020 20:53:37",
  "Symbol": "AAPL"
},
{
  "CapturedAt": "20-09-2020 20:53:41",
  "Symbol": "AAPL"
},
{
  "CapturedAt": "20-09-2020 20:53:46",
  "Symbol": "AAPL"
},
{
  "CapturedAt": "20-09-2020 20:53:50",
  "Symbol": "AAPL"
},
{
  "CapturedAt": "20-09-2020 20:53:55",
  "Symbol": "AAPL"
},
{
  "CapturedAt": "20-09-2020 20:53:59",
  "Symbol": "AAPL"
},
{
  "CapturedAt": "20-09-2020 20:54:03",
  "Symbol": "AAPL"
},
{
  "CapturedAt": "20-09-2020 20:54:07",
  "Symbol": "AAPL"
},
{
  "CapturedAt": "20-09-2020 20:54:12",
  "Symbol": "AAPL"
},
{
  "CapturedAt": "20-09-2020 20:54:16",
  "Symbol": "AAPL"
},
{
  "CapturedAt": "20-09-2020 20:54:20",
  "Symbol": "AAPL"
},
{
  "CapturedAt": "20-09-2020 20:54:25",
  "Symbol": "AAPL"
},
{
  "CapturedAt": "20-09-2020 20:54:29",
  "Symbol": "AAPL"
},
{
  "CapturedAt": "20-09-2020 20:54:33",
  "Symbol": "AAPL"
},
{
  "CapturedAt": "20-09-2020 20:54:38",
  "Symbol": "AAPL"
},
{
  "CapturedAt": "20-09-2020 20:54:42",
  "Symbol": "AAPL"
},
{
  "CapturedAt": "20-09-2020 20:54:46",
  "Symbol": "AAPL"
},
{
  "CapturedAt": "20-09-2020 20:54:51",
  "Symbol": "AAPL"
},
{
  "CapturedAt": "20-09-2020 20:54:55",
  "Symbol": "AAPL"
},
{
  "CapturedAt": "20-09-2020 20:55:00",
  "Symbol": "AAPL"
},
{
  "CapturedAt": "20-09-2020 20:55:06",
  "Symbol": "AAPL"
},
{
  "CapturedAt": "20-09-2020 20:55:12",
  "Symbol": "AAPL"
},
{
  "CapturedAt": "20-09-2020 20:55:17",
  "Symbol": "AAPL"
},
{
  "CapturedAt": "20-09-2020 20:55:22",
  "Symbol": "AAPL"
},
{
  "CapturedAt": "20-09-2020 20:55:27",
  "Symbol": "AAPL"
},
{
  "CapturedAt": "20-09-2020 20:55:33",
  "Symbol": "AAPL"
},
{
  "CapturedAt": "20-09-2020 20:55:40",
  "Symbol": "AAPL"
},
{
  "CapturedAt": "20-09-2020 20:55:46",
  "Symbol": "AAPL"
},
{
  "CapturedAt": "20-09-2020 20:55:53",
  "Symbol": "AAPL"
},
{
  "CapturedAt": "20-09-2020 20:55:59",
  "Symbol": "AAPL"
},
{
  "CapturedAt": "20-09-2020 20:56:06",
  "Symbol": "AAPL"
},
{
  "CapturedAt": "20-09-2020 20:56:10",
  "Symbol": "AAPL"
},
{
  "CapturedAt": "20-09-2020 20:56:16",
  "Symbol": "AAPL"
},
{
  "CapturedAt": "20-09-2020 20:56:22",
  "Symbol": "AAPL"
},
{
  "CapturedAt": "20-09-2020 20:56:26",
  "Symbol": "AAPL"
},
{
  "CapturedAt": "20-09-2020 20:56:31",
  "Symbol": "AAPL"
},
{
  "CapturedAt": "20-09-2020 20:56:35",
  "Symbol": "AAPL"
},
{
  "CapturedAt": "20-09-2020 20:56:42",
  "Symbol": "AAPL"
},
{
  "CapturedAt": "20-09-2020 20:56:47",
  "Symbol": "AAPL"
},
{
  "CapturedAt": "20-09-2020 20:56:52",
  "Symbol": "AAPL"
},
{
  "CapturedAt": "20-09-2020 20:56:57",
  "Symbol": "AAPL"
},
{
  "CapturedAt": "20-09-2020 20:57:02",
  "Symbol": "AAPL"
},
{
  "CapturedAt": "20-09-2020 20:57:06",
  "Symbol": "AAPL"
},
{
  "CapturedAt": "20-09-2020 20:57:10",
  "Symbol": "AAPL"
},
{
  "CapturedAt": "20-09-2020 20:57:15",
  "Symbol": "AAPL"
},
{
  "CapturedAt": "20-09-2020 20:57:19",
  "Symbol": "AAPL"
},
{
  "CapturedAt": "20-09-2020 20:57:26",
  "Symbol": "AAPL"
},
{
  "CapturedAt": "20-09-2020 20:57:32",
  "Symbol": "AAPL"
},
{
  "CapturedAt": "20-09-2020 20:57:38",
  "Symbol": "AAPL"
},
{
  "CapturedAt": "20-09-2020 20:57:44",
  "Symbol": "AAPL"
},
